\relax 
\providecommand*\new@tpo@label[2]{}
\@writefile{lof}{\contentsline {figure}{\numberline {1}{\ignorespaces Schematic of HD-RD0061.\relax }}{1}}
\providecommand*\caption@xref[2]{\@setref\relax\@undefined{#1}}
\newlabel{fig:hd-rd006110x405mm-smoothroddiagram}{{1}{1}}
\@writefile{toc}{\contentsline {section}{\numberline {1}Dimension 01}{2}}
\@writefile{lof}{\contentsline {figure}{\numberline {2}{\ignorespaces Dimension 01\relax }}{2}}
\newlabel{fig:dim01}{{2}{2}}
\@writefile{toc}{\contentsline {section}{\numberline {2}Dimension 02}{2}}
\@writefile{lof}{\contentsline {figure}{\numberline {3}{\ignorespaces Dimension 02\relax }}{2}}
\newlabel{fig:dim02}{{3}{2}}
