<?xml version="1.0" encoding="UTF-8" standalone="no"?>
<svg
   xmlns:dc="http://purl.org/dc/elements/1.1/"
   xmlns:cc="http://creativecommons.org/ns#"
   xmlns:rdf="http://www.w3.org/1999/02/22-rdf-syntax-ns#"
   xmlns:svg="http://www.w3.org/2000/svg"
   xmlns="http://www.w3.org/2000/svg"
   id="svg5204"
   version="1.1"
   viewBox="0 0 85.153732 197.46529"
   height="197.46529mm"
   width="85.153732mm">
  <defs
     id="defs5198" />
  <metadata
     id="metadata5201">
    <rdf:RDF>
      <cc:Work
         rdf:about="">
        <dc:format>image/svg+xml</dc:format>
        <dc:type
           rdf:resource="http://purl.org/dc/dcmitype/StillImage" />
        <dc:title></dc:title>
      </cc:Work>
    </rdf:RDF>
  </metadata>
  <g
     transform="translate(-82.911241,-48.588792)"
     id="layer1">
    <g
       aria-label="Z"
       transform="matrix(0,15.067271,-18.632054,0,6448.5164,-1193.6187)"
       style="font-style:normal;font-variant:normal;font-weight:300;font-stretch:normal;font-size:13.73333359px;line-height:125%;font-family:Titillium;-inkscape-font-specification:'Titillium, Light';font-variant-ligatures:normal;font-variant-caps:normal;font-variant-numeric:normal;font-feature-settings:normal;text-align:start;letter-spacing:0px;word-spacing:0px;writing-mode:lr-tb;text-anchor:start;display:inline;fill:#000000;fill-opacity:1;stroke:none;stroke-width:1px;stroke-linecap:butt;stroke-linejoin:miter;stroke-opacity:1"
       id="g20759">
      <path
         transform="matrix(0,-0.01421264,0.01757523,0,67.06378,359.38083)"
         id="path19914"
         d="m 1247.6758,1502.4148 150.7148,108.2246 c 9.2002,6.9824 17.5667,10.1464 30.9199,10.1582 h 123.1217 c 9.4335,-0.012 16.861,-8.7583 16.8079,-16.5542 v -390.3567 c 0.01,-9.4167 -6.8666,-14.8369 -16.8079,-14.8457 h -120.3541 c -10.5138,0.091 -14.4242,6.7257 -14.3613,14.8457 v 249.2676 l -170.041,-124.7344 z"
         style="font-style:normal;font-variant:normal;font-weight:normal;font-stretch:normal;font-family:outage;-inkscape-font-specification:outage;fill:#000000;stroke-width:63.27206802px" />
    </g>
    <path
       id="path19908"
       d="m 82.916535,155.62159 32.814875,24.26324 -0.18944,-40.86982 v 0 c 0.16293,-6.71165 -0.50226,-10.01516 -7.99446,-15.57051 L 82.917517,105.02508 Z"
       style="display:inline;opacity:1;fill:#000000;fill-opacity:1;fill-rule:evenodd;stroke:none;stroke-width:0.57406545;stroke-linecap:butt;stroke-linejoin:miter;stroke-miterlimit:4;stroke-dasharray:none;stroke-dashoffset:1.20110357;stroke-opacity:1;paint-order:stroke markers fill" />
    <g
       id="g20765"
       style="font-style:normal;font-variant:normal;font-weight:300;font-stretch:normal;font-size:13.73333359px;line-height:125%;font-family:Titillium;-inkscape-font-specification:'Titillium, Light';font-variant-ligatures:normal;font-variant-caps:normal;font-variant-numeric:normal;font-feature-settings:normal;text-align:start;letter-spacing:0px;word-spacing:0px;writing-mode:lr-tb;text-anchor:start;display:inline;fill:#000000;fill-opacity:1;stroke:none;stroke-width:1px;stroke-linecap:butt;stroke-linejoin:miter;stroke-opacity:1"
       transform="matrix(0,-15.067271,18.632054,0,-6290.4583,1458.4037)"
       aria-label="Z">
      <path
         transform="matrix(0,0.01421264,-0.01757523,0,108.94835,324.33202)"
         id="path19903"
         d="m 1247.6914,1031.1641 154.2793,113.1718 c 9.2115,6.3582 19.6918,9.5137 31.8867,9.377 h 118.5743 c 12.2377,0 16.8079,-5.5336 16.8079,-14.8457 0,-9.3121 -0.011,-105.4473 0,-123.7422 -0.046,-9.9566 -3.6514,-15.42843 -16.8079,-15.53962 -24.4256,-0.0386 -48.6729,0.12007 -131.1343,0.19196 l -173.606,-124.66406 z"
         style="font-style:normal;font-variant:normal;font-weight:normal;font-stretch:normal;font-family:outage;-inkscape-font-specification:outage;fill:#000000;stroke-width:63.27206802px" />
    </g>
  </g>
</svg>
