,Config,dim03,ucl,lcl
Chart Title,"PP-FP0149: Electronics Chassis, Quiver Dim03",240.11,240.5,240
X-axis,,240.08,,
Y-axis 1,dim03,240.04,,
Y-axis 2,,239.84,,
Y-axis 3,,240.03,,
Y-axis 4,,240.31,,
UCL,ucl,240.01,,
LCL,lcl,240,,
X label,Index,240.13,,
Y label,Dimension (mm),240,,
hist1,dim03,240.04,,
hist2,,240.13,,
change index,,240.25,,
change,,240.25,,
,,240.04,,
,,240.03,,
,,239.61,,
,,240.02,,
,,240.13,,
,,240.14,,
,,240.18,,
,,240.05,,
,,240.21,,
,,240.43,,
