<?xml version="1.0" encoding="UTF-8" standalone="no"?>
<svg
   xmlns:dc="http://purl.org/dc/elements/1.1/"
   xmlns:cc="http://creativecommons.org/ns#"
   xmlns:rdf="http://www.w3.org/1999/02/22-rdf-syntax-ns#"
   xmlns:svg="http://www.w3.org/2000/svg"
   xmlns="http://www.w3.org/2000/svg"
   id="svg6428"
   version="1.1"
   viewBox="0 0 69.995132 70.692741"
   height="70.692741mm"
   width="69.995132mm">
  <defs
     id="defs6422">
    <clipPath
       clipPathUnits="userSpaceOnUse"
       id="clipPath18-1">
      <path
         d="m 0,10.0195 h 2950 v 3041.99 H 0 Z"
         id="path20-2" />
    </clipPath>
    <clipPath
       clipPathUnits="userSpaceOnUse"
       id="clipPath68-8">
      <path
         d="M 0,3052.01 H 2950 V 10.0195 H 0 Z"
         id="path70-8" />
    </clipPath>
  </defs>
  <metadata
     id="metadata6425">
    <rdf:RDF>
      <cc:Work
         rdf:about="">
        <dc:format>image/svg+xml</dc:format>
        <dc:type
           rdf:resource="http://purl.org/dc/dcmitype/StillImage" />
        <dc:title></dc:title>
      </cc:Work>
    </rdf:RDF>
  </metadata>
  <g
     transform="translate(-138.87149,-178.49886)"
     id="layer1">
    <g
       id="g10"
       transform="matrix(0.27044674,0,0,-0.27044674,134.03725,256.21941)"
       style="display:inline">
      <g
         id="g12"
         transform="scale(0.1)">
        <g
           id="g14">
          <g
             id="g16"
             clip-path="url(#clipPath18-1)">
            <path
               id="path22"
               transform="matrix(20.513284,0,0,-20.513284,-4398.9417,6931.2874)"
               d="M 284.04688,197.79883 223.1582,303.23242 h 121.77735 z m 0,5.99414 14.37304,24.88476 h -28.74414 z m -16.13086,27.93555 h 32.26757 l 23.36524,40.46875 -16.16016,27.98242 H 260.5332 L 244.45898,272.3418 Z m 57.36523,43.46289 14.43164,24.98828 h -28.86328 z m -82.55273,0.14843 14.3457,24.83985 h -28.69336 z"
               style="fill:#000000;fill-opacity:1;fill-rule:nonzero;stroke:none;stroke-width:0.0487489" />
            <path
               d="m 398.09,342.602 c 2.57,0 4.68,-0.903 6.32,-2.704 1.61,-1.796 2.391,-3.976 2.391,-6.558 v -64.18 c 0,-2.621 -0.781,-4.808 -2.391,-6.601 -1.64,-1.797 -3.75,-2.7 -6.32,-2.7 H 188.012 c -6.211,0 -9.262,3.129 -9.262,9.301 v 321.91 c 0,6.129 3.051,9.258 9.262,9.258 h 67.109 c 6.129,0 9.219,-3.129 9.219,-9.258 V 351.309 c 0,-2.579 0.89,-4.649 2.691,-6.289 1.758,-1.641 3.949,-2.418 6.559,-2.418 h 124.5"
               style="fill:#000000;fill-opacity:1;fill-rule:nonzero;stroke:none"
               id="path24" />
            <path
               d="m 785.898,597.629 c 1.762,-1.789 2.653,-3.938 2.653,-6.559 V 324.078 h -0.461 c 0,-2.578 -0.32,-5.348 -0.981,-8.277 -0.66,-2.891 -1.449,-5.313 -2.418,-7.313 l -44.73,-44.718 c -2.262,-1.25 -5.121,-2.27 -8.512,-2.891 -3.398,-0.668 -6.41,-1.02 -9.027,-1.02 H 568.281 c -2.621,0 -5.511,0.352 -8.75,1.02 -3.242,0.621 -6.011,1.641 -8.281,2.891 l -44.73,44.718 c -1.29,2.313 -2.301,5.043 -2.93,8.321 -0.66,3.211 -0.969,6.14 -0.969,8.75 V 591.07 c 0,2.621 0.899,4.77 2.688,6.559 1.761,1.801 3.953,2.699 6.57,2.699 h 67.101 c 2.579,0 4.77,-0.898 6.571,-2.699 1.789,-1.789 2.687,-3.938 2.687,-6.559 V 351.309 c 0,-2.579 0.864,-4.809 2.66,-6.528 1.762,-1.793 3.981,-2.691 6.563,-2.691 h 96.289 c 2.578,0 4.73,0.898 6.328,2.691 1.602,1.719 2.422,3.949 2.422,6.528 V 591.07 c 0,2.621 0.898,4.77 2.66,6.559 1.789,1.801 3.981,2.699 6.602,2.699 h 67.578 c 2.57,0 4.801,-0.898 6.558,-2.699"
               style="fill:#000000;fill-opacity:1;fill-rule:nonzero;stroke:none"
               id="path26" />
            <path
               d="m 1133.36,342.602 c 2.58,0 4.69,-0.903 6.33,-2.704 1.64,-1.796 2.42,-3.976 2.42,-6.558 v -64.18 c 0,-2.621 -0.78,-4.808 -2.42,-6.601 -1.64,-1.797 -3.75,-2.7 -6.33,-2.7 H 923.281 c -6.172,0 -9.222,3.129 -9.222,9.301 v 321.91 c 0,6.129 3.05,9.258 9.222,9.258 h 67.11 c 6.168,0 9.257,-3.129 9.257,-9.258 V 351.309 c 0,-2.579 0.862,-4.649 2.652,-6.289 1.8,-1.641 3.95,-2.418 6.57,-2.418 h 124.49"
               style="fill:#000000;fill-opacity:1;fill-rule:nonzero;stroke:none"
               id="path28" />
            <path
               d="m 1497.66,529.781 c 0,-2.582 -0.67,-5.351 -2,-8.281 -1.28,-2.891 -2.77,-5.309 -4.33,-7.262 L 1333.24,336.23 h 155.16 c 2.58,0 4.76,-0.859 6.52,-2.66 1.8,-1.789 2.74,-3.98 2.74,-6.558 V 269.16 c 0,-2.621 -0.94,-4.808 -2.74,-6.601 -1.76,-1.797 -3.94,-2.7 -6.52,-2.7 h -241.72 c -6.13,0 -9.26,3.129 -9.26,9.301 v 60.781 c 0,2.579 0.59,5.43 1.72,8.481 1.13,3.078 2.5,5.617 4.14,7.527 l 161.45,178.012 h -155.12 c -2.62,0 -4.81,0.898 -6.56,2.699 -1.8,1.762 -2.7,3.942 -2.7,6.52 v 57.89 c 0,2.621 0.9,4.77 2.7,6.559 1.75,1.801 3.94,2.699 6.56,2.699 h 238.79 c 2.58,0 4.76,-0.898 6.52,-2.699 1.8,-1.789 2.74,-3.938 2.74,-6.559 v -61.289"
               style="fill:#000000;fill-opacity:1;fill-rule:nonzero;stroke:none"
               id="path30" />
            <path
               d="m 1700.9,334.281 h 130.82 v 66.168 H 1700.9 Z m 0,131.321 h 130.82 v 60.777 H 1700.9 Z m 204.72,86.097 c 0.98,-2.269 1.88,-5.121 2.66,-8.519 0.82,-3.399 1.25,-6.399 1.25,-8.981 v -53.988 c 0,-2.609 -0.58,-5.473 -1.72,-8.512 -1.13,-3.129 -2.5,-5.629 -4.14,-7.539 l -20.9,-26.762 c -1.64,-1.949 -2.38,-4.378 -2.18,-7.296 0.15,-2.93 1.01,-5.161 2.69,-6.801 l 19.92,-24.34 c 1.6,-1.91 3.09,-4.449 4.38,-7.539 1.29,-3.043 1.95,-5.902 1.95,-8.512 v -57.351 c 0,-2.61 -0.43,-5.539 -1.25,-8.75 -0.78,-3.278 -1.68,-6.008 -2.66,-8.321 L 1860.9,263.77 c -2.31,-1.25 -5.12,-2.27 -8.52,-2.891 -3.43,-0.668 -6.4,-1.02 -8.98,-1.02 h -210.59 c -6.17,0 -9.26,3.129 -9.26,9.301 v 321.91 c 0,2.621 0.9,4.77 2.7,6.559 1.8,1.801 3.95,2.699 6.56,2.699 h 210.59 c 2.58,0 5.55,-0.43 8.98,-1.207 3.4,-0.82 6.21,-1.723 8.52,-2.699 l 44.72,-44.723"
               style="fill:#000000;fill-opacity:1;fill-rule:nonzero;stroke:none"
               id="path32" />
            <path
               d="m 2118.12,342.09 h 114.3 v 175.512 h -114.3 z m 196.53,209.609 c 0.97,-2.269 1.83,-5.039 2.65,-8.277 0.82,-3.25 1.25,-6.184 1.25,-8.75 V 325.559 c 0,-2.61 -0.43,-5.539 -1.25,-8.75 -0.82,-3.278 -1.68,-6.008 -2.65,-8.321 l -44.77,-44.718 c -2.26,-1.25 -5.11,-2.27 -8.51,-2.891 -3.36,-0.668 -6.41,-1.02 -8.99,-1.02 H 2098.2 c -2.58,0 -5.5,0.352 -8.75,1.02 -3.24,0.621 -5.97,1.641 -8.24,2.891 l -44.76,44.718 c -1.25,2.313 -2.27,5.043 -2.9,8.321 -0.66,3.211 -0.97,6.14 -0.97,8.75 v 209.113 c 0,2.566 0.31,5.5 0.97,8.75 0.63,3.238 1.65,6.008 2.9,8.277 l 44.76,44.723 c 2.27,0.976 5,1.879 8.24,2.699 3.25,0.777 6.17,1.207 8.75,1.207 h 154.18 c 2.58,0 5.63,-0.43 8.99,-1.207 3.4,-0.82 6.25,-1.723 8.51,-2.699 l 44.77,-44.723"
               style="fill:#000000;fill-opacity:1;fill-rule:nonzero;stroke:none"
               id="path34" />
            <path
               d="m 2676.91,526.852 c 0,-2.571 -0.89,-4.723 -2.65,-6.524 -1.84,-1.797 -3.99,-2.726 -6.56,-2.726 h -69.07 c -2.58,0 -4.76,-0.793 -6.6,-2.391 -1.76,-1.602 -2.65,-3.75 -2.65,-6.332 V 269.16 c 0,-2.621 -0.83,-4.808 -2.43,-6.601 -1.64,-1.797 -3.75,-2.7 -6.33,-2.7 h -67.57 c -2.66,0 -4.81,0.903 -6.6,2.7 -1.76,1.793 -2.66,3.98 -2.66,6.601 v 239.719 c 0,2.582 -0.82,4.73 -2.42,6.332 -1.6,1.598 -3.75,2.391 -6.29,2.391 h -69.1 c -2.58,0 -4.77,0.929 -6.57,2.726 -1.75,1.801 -2.65,3.953 -2.65,6.524 v 64.218 c 0,6.129 3.04,9.258 9.22,9.258 h 241.72 c 2.57,0 4.72,-0.898 6.56,-2.699 1.76,-1.789 2.65,-3.938 2.65,-6.559 v -64.218"
               style="fill:#000000;fill-opacity:1;fill-rule:nonzero;stroke:none"
               id="path36" />
            <path
               id="path46"
               transform="matrix(20.513284,0,0,-20.513284,-4398.9417,6931.2874)"
               d="m 284.03906,237.38867 c -0.20377,0 -0.41043,0.0745 -0.58008,0.22266 -0.16915,0.15063 -0.3319,0.63126 -0.55664,1.17773 -0.22278,0.54648 -0.50652,1.15691 -0.91406,1.56446 -0.40754,0.40949 -0.89144,0.65001 -1.39648,0.71679 -0.50455,0.0668 -1.0345,-0.0444 -1.53125,-0.33398 -0.49919,-0.28713 -0.93272,-0.80497 -1.29297,-1.2793 -0.35977,-0.47189 -0.64584,-0.89909 -0.84961,-0.99805 -0.19987,-0.10139 -0.41732,-0.12003 -0.61524,-0.0664 -0.1984,0.0531 -0.37423,0.17657 -0.50195,0.36523 -0.12382,0.18866 -0.15637,0.69627 -0.22851,1.28516 -0.0726,0.5884 -0.18699,1.25325 -0.47266,1.75391 -0.28957,0.49915 -0.69364,0.85481 -1.16602,1.05078 -0.47042,0.1945 -1.00627,0.22632 -1.5625,0.0781 -0.55573,-0.15063 -1.11992,-0.55041 -1.59961,-0.92578 -0.48017,-0.37293 -0.87487,-0.72178 -1.09765,-0.76562 -0.22083,-0.0458 -0.43437,-0.009 -0.61328,0.0937 -0.17696,0.10092 -0.31604,0.2694 -0.39063,0.48438 -0.0702,0.21352 0.0412,0.72655 0.13281,1.32227 0.0912,0.60009 0.16431,1.28166 0.0156,1.83984 -0.14868,0.55574 -0.44597,1.00197 -0.85156,1.3125 -0.40364,0.31053 -0.91501,0.48242 -1.49414,0.48047 -0.57475,0 -1.2358,-0.26263 -1.81055,-0.51953 -0.57329,-0.25691 -1.06042,-0.51365 -1.28516,-0.49805 -0.22473,0.0132 -0.42147,0.10522 -0.5664,0.25 -0.14469,0.14478 -0.2367,0.34216 -0.25196,0.56836 -0.015,0.22473 0.23865,0.71187 0.4961,1.28516 0.25686,0.57523 0.51758,1.23726 0.51758,1.8125 0,0.5767 -0.16799,1.08659 -0.48047,1.49023 -0.31058,0.40413 -0.76072,0.70337 -1.31641,0.85156 -0.55832,0.14674 -1.24169,0.0741 -1.83984,-0.0195 -0.59567,-0.0912 -1.1069,-0.20349 -1.32227,-0.1289 -0.21308,0.0702 -0.37947,0.21122 -0.48437,0.38867 -0.10091,0.17501 -0.13953,0.3905 -0.0957,0.61328 0.0459,0.22132 0.39275,0.61601 0.76563,1.0957 0.37341,0.48018 0.77319,1.04339 0.92383,1.60156 0.14873,0.55574 0.11589,1.09208 -0.0801,1.56446 -0.19461,0.47042 -0.55169,0.87448 -1.05078,1.16015 -0.4987,0.28713 -1.16546,0.40051 -1.75391,0.47071 -0.5884,0.0726 -1.1003,0.10274 -1.28711,0.22851 -0.18812,0.12577 -0.31151,0.30598 -0.36523,0.50196 -0.0531,0.19837 -0.0346,0.41341 0.0644,0.61718 0.10096,0.20182 0.52582,0.48985 0.99805,0.84961 0.47052,0.36026 0.98987,0.79378 1.27929,1.29297 0.28772,0.50065 0.39628,1.0267 0.32813,1.53125 -0.0649,0.50455 -0.3073,0.98748 -0.71485,1.39453 -0.40746,0.40754 -1.01792,0.69079 -1.56445,0.91406 -0.54652,0.22425 -1.02905,0.38703 -1.17969,0.55664 -0.15063,0.1716 -0.22265,0.37436 -0.22265,0.57813 -0.002,0.20572 0.072,0.41043 0.22265,0.58008 0.14874,0.16964 0.63121,0.33191 1.17774,0.55859 0.54652,0.22278 1.15501,0.50652 1.5625,0.91406 0.40944,0.40706 0.65016,0.88999 0.7168,1.39649 0.0649,0.5026 -0.0426,1.03255 -0.33204,1.53125 -0.28966,0.49724 -0.80882,0.9332 -1.28125,1.29101 -0.47188,0.35782 -0.89713,0.64584 -0.99804,0.84766 -0.099,0.20377 -0.12013,0.42073 -0.0664,0.61719 0.0531,0.19792 0.17653,0.37423 0.36524,0.50195 0.18812,0.12382 0.69865,0.15588 1.28515,0.23047 0.5884,0.0702 1.25516,0.18553 1.75391,0.47266 0.4987,0.28761 0.85676,0.68973 1.05078,1.16015 0.1946,0.47238 0.22642,1.01067 0.0762,1.56641 -0.14873,0.55817 -0.55041,1.12187 -0.92383,1.59961 -0.37492,0.48017 -0.72165,0.87292 -0.76562,1.0957 -0.0457,0.22327 -0.007,0.43437 0.0937,0.61328 0.10286,0.17745 0.27124,0.31848 0.48242,0.38867 0.21537,0.0746 0.72841,-0.0353 1.32617,-0.12695 0.59601,-0.0931 1.28167,-0.16577 1.83789,-0.0176 0.55754,0.15064 1.00597,0.44597 1.31446,0.84961 0.31057,0.40559 0.48241,0.91501 0.48046,1.49414 -0.002,0.57524 -0.26257,1.23922 -0.51953,1.81446 -0.2588,0.57133 -0.51311,1.05895 -0.5,1.2832 0.0156,0.22668 0.10512,0.42406 0.25196,0.56641 0.14278,0.14478 0.33967,0.23879 0.56445,0.25195 0.22668,0.0151 0.71382,-0.2387 1.28906,-0.4961 0.57329,-0.25687 1.23531,-0.51953 1.81055,-0.51953 0.5767,0 1.08855,0.17433 1.49219,0.48243 0.40364,0.30858 0.70141,0.76018 0.84961,1.31836 0.14673,0.55565 0.0741,1.23968 -0.0176,1.83593 -0.0912,0.6002 -0.20347,1.10865 -0.13282,1.32422 0.0741,0.21308 0.21318,0.37966 0.39063,0.48438 0.17696,0.10096 0.39245,0.13757 0.61328,0.0937 0.22132,-0.0434 0.61602,-0.38816 1.0957,-0.76368 0.48018,-0.37322 1.04339,-0.77568 1.60157,-0.92382 0.55573,-0.14684 1.09402,-0.11643 1.56445,0.0801 0.46994,0.19597 0.87303,0.55175 1.16016,1.05274 0.28761,0.49875 0.40245,1.16546 0.47265,1.75391 0.0726,0.58836 0.10275,1.0984 0.22852,1.2871 0.12382,0.18662 0.30403,0.31205 0.50195,0.36329 0.19646,0.0531 0.41342,0.0345 0.61524,-0.0664 0.20377,-0.0991 0.48789,-0.52577 0.84961,-0.99609 0.35973,-0.46999 0.79426,-0.98983 1.29296,-1.2793 0.49919,-0.28718 1.02865,-0.39496 1.53125,-0.32813 0.5065,0.0644 0.987,0.30711 1.39649,0.71485 0.40559,0.40749 0.68933,1.01798 0.91211,1.5664 0.22278,0.54653 0.38895,1.02959 0.55859,1.17774 0.16965,0.15063 0.37289,0.22461 0.57813,0.22461 0.20377,0 0.40652,-0.0739 0.57617,-0.22266 0.16964,-0.14815 0.33584,-0.63316 0.56054,-1.17969 0.22279,-0.54652 0.50653,-1.15506 0.91407,-1.56445 0.40754,-0.40754 0.89193,-0.6481 1.39648,-0.71289 0.50455,-0.0664 1.0345,0.0426 1.53125,0.33008 0.50114,0.29157 0.93272,0.80902 1.29297,1.28125 0.35977,0.47247 0.64584,0.89716 0.84766,0.99804 0.20377,0.10092 0.41878,0.11765 0.61718,0.0664 0.19792,-0.0535 0.37423,-0.17706 0.5,-0.36328 0.12578,-0.18871 0.15784,-0.69871 0.23047,-1.28711 0.0721,-0.5884 0.18553,-1.25477 0.47266,-1.75391 0.28957,-0.4987 0.69168,-0.85695 1.16211,-1.05078 0.47238,-0.19407 1.01018,-0.22675 1.56641,-0.0762 0.55814,0.14815 1.12187,0.54885 1.5996,0.92383 0.48018,0.37532 0.87293,0.7216 1.09571,0.76562 0.22083,0.0453 0.43437,0.007 0.61133,-0.0937 0.17695,-0.10286 0.31798,-0.26934 0.39062,-0.48242 0.0721,-0.21347 -0.0373,-0.72807 -0.12891,-1.32617 -0.0912,-0.59566 -0.16626,-1.28011 -0.0176,-1.83789 0.15063,-0.55418 0.44792,-1.00392 0.85351,-1.31445 0.40364,-0.3081 0.915,-0.48242 1.49219,-0.47852 0.57475,-0.002 1.23921,0.26068 1.8125,0.52149 0.5728,0.25739 1.06042,0.5112 1.28516,0.49804 0.22473,-0.0151 0.42162,-0.10912 0.5664,-0.2539 0.14284,-0.14284 0.23879,-0.34168 0.25196,-0.56641 0.0131,-0.22473 -0.23871,-0.71187 -0.49805,-1.28711 -0.25691,-0.5728 -0.51563,-1.2358 -0.51758,-1.81055 0,-0.57718 0.17189,-1.08854 0.48242,-1.49218 0.31053,-0.40364 0.75875,-0.70093 1.31445,-0.84766 0.55818,-0.15063 1.23975,-0.0755 1.83985,0.0176 0.59571,0.0917 1.10875,0.20106 1.32422,0.13086 0.21303,-0.0726 0.38151,-0.21367 0.48437,-0.39063 0.10091,-0.17696 0.13763,-0.39049 0.0937,-0.61133 -0.0458,-0.22278 -0.39269,-0.61991 -0.76562,-1.09765 -0.37342,-0.47823 -0.7732,-1.04387 -0.92383,-1.59961 -0.1482,-0.55818 -0.11394,-1.09403 0.0801,-1.56641 0.19646,-0.47042 0.55163,-0.87449 1.05468,-1.16015 0.49871,-0.28957 1.16356,-0.40002 1.75196,-0.47266 0.58645,-0.0702 1.09845,-0.1047 1.28711,-0.23047 0.18671,-0.12333 0.3121,-0.30208 0.36523,-0.49805 0.0531,-0.19792 0.0326,-0.41341 -0.0664,-0.61718 -0.10091,-0.20377 -0.52567,-0.48936 -0.9961,-0.84961 -0.47237,-0.35977 -0.99168,-0.79622 -1.28125,-1.29492 -0.28762,-0.49871 -0.39442,-1.02622 -0.32812,-1.53125 0.0668,-0.50651 0.30925,-0.98504 0.71679,-1.39258 0.40754,-0.40559 1.01993,-0.68933 1.56446,-0.91407 0.54647,-0.22275 1.02953,-0.38699 1.17773,-0.55664 0.15064,-0.1711 0.22461,-0.37435 0.22461,-0.57812 0,-0.20377 -0.074,-0.41043 -0.22461,-0.58008 -0.14673,-0.16916 -0.63125,-0.33191 -1.17578,-0.55664 -0.54453,-0.22473 -1.15692,-0.50652 -1.56641,-0.91602 -0.40364,-0.40751 -0.6461,-0.88998 -0.71289,-1.39453 -0.0663,-0.50698 0.0444,-1.0345 0.33203,-1.5332 0.28957,-0.4987 0.80693,-0.93128 1.28125,-1.29101 0.47238,-0.36026 0.89714,-0.64779 0.99805,-0.84766 0.10091,-0.20377 0.12003,-0.41927 0.0664,-0.61719 -0.0531,-0.19841 -0.17658,-0.37618 -0.36524,-0.50195 -0.18622,-0.12334 -0.69675,-0.15832 -1.28515,-0.22852 -0.5884,-0.0746 -1.25472,-0.18699 -1.75586,-0.47461 -0.49675,-0.28762 -0.85676,-0.69168 -1.05078,-1.16406 -0.19646,-0.47043 -0.22681,-1.00628 -0.0762,-1.56445 0.1482,-0.55574 0.55042,-1.11992 0.92383,-1.59961 0.37537,-0.47774 0.72224,-0.87292 0.76563,-1.09375 0.0458,-0.22083 0.007,-0.43437 -0.0957,-0.61328 -0.10286,-0.17696 -0.26743,-0.31604 -0.48046,-0.38868 -0.21547,-0.0721 -0.72607,0.0373 -1.32422,0.12891 -0.59815,0.0912 -1.28216,0.16236 -1.83985,0.0156 -0.55427,-0.14869 -1.00197,-0.44793 -1.31445,-0.85157 -0.30858,-0.40559 -0.47852,-0.91548 -0.47852,-1.49218 0.002,-0.57524 0.26458,-1.23922 0.52149,-1.8125 0.25691,-0.57524 0.51316,-1.06043 0.49805,-1.28516 -0.0156,-0.22668 -0.10717,-0.42162 -0.25196,-0.56641 -0.14478,-0.14673 -0.34167,-0.23635 -0.5664,-0.25195 -0.22669,-0.0151 -0.71383,0.23919 -1.28711,0.49805 -0.57475,0.25495 -1.23775,0.51563 -1.8125,0.51758 -0.57524,-0.002 -1.08855,-0.1719 -1.49024,-0.48243 -0.40364,-0.31053 -0.70141,-0.76067 -0.84961,-1.3164 -0.14868,-0.56013 -0.0741,-1.24365 0.0176,-1.83985 0.0912,-0.59766 0.2035,-1.10923 0.13086,-1.32226 -0.0741,-0.21352 -0.21171,-0.38152 -0.38867,-0.48438 -0.17745,-0.10091 -0.3905,-0.14153 -0.61328,-0.0976 -0.22084,0.0458 -0.61797,0.39273 -1.09766,0.76757 -0.48213,0.37342 -1.04387,0.7732 -1.59961,0.92188 -0.56012,0.15063 -1.09597,0.11782 -1.56445,-0.0781 -0.47043,-0.19598 -0.87449,-0.55209 -1.16211,-1.05079 -0.28762,-0.50308 -0.40051,-1.16746 -0.47266,-1.75586 -0.0722,-0.58644 -0.10274,-1.09844 -0.22851,-1.28515 -0.12577,-0.18817 -0.30403,-0.31162 -0.49805,-0.36719 -0.19792,-0.0512 -0.41732,-0.0325 -0.61914,0.0664 -0.20182,0.10091 -0.48984,0.52566 -0.84961,0.99609 -0.35782,0.47433 -0.79427,0.99168 -1.29297,1.28125 -0.49919,0.28762 -1.02865,0.39686 -1.5332,0.33008 -0.5065,-0.0687 -0.98504,-0.31121 -1.39258,-0.71875 -0.40559,-0.40754 -0.68933,-1.01798 -0.91211,-1.56445 -0.22473,-0.54648 -0.38895,-1.02905 -0.55859,-1.17774 -0.16916,-0.15015 -0.37241,-0.22266 -0.57813,-0.22461 z m 0.006,3.83008 c 0.80972,0 1.46289,0.65366 1.46289,1.46289 0,0.80728 -0.65317,1.46094 -1.46289,1.46094 -0.80923,0 -1.46094,-0.65366 -1.46094,-1.46094 0,-0.80923 0.65171,-1.46289 1.46094,-1.46289 z m -0.0234,4.21289 c 5.83232,0 11.31284,2.26792 15.42579,6.38086 8.50424,8.5062 8.50228,22.34341 -0.004,30.84961 -4.111,4.11538 -9.58956,6.37891 -15.42383,6.37891 -5.8328,0 -11.30893,-2.26353 -15.42187,-6.37891 -4.1149,-4.11295 -6.38086,-9.58956 -6.38086,-15.42383 -0.002,-5.8328 2.26596,-11.31039 6.3789,-15.42383 4.11344,-4.11489 9.59298,-6.38281 15.42578,-6.38281 z m 0,0.72656 c -2.74212,0 -5.41475,0.52022 -7.9414,1.54297 -2.61684,1.05834 -4.96178,2.61411 -6.9707,4.625 -8.22253,8.22248 -8.22253,21.60126 0,29.82422 2.00892,2.00894 4.35386,3.56422 6.9707,4.625 2.52665,1.02227 5.19928,1.54102 7.93945,1.54102 h 0.002 c 2.74018,0 5.41231,-0.51875 7.93946,-1.54102 2.61635,-1.05883 4.96176,-2.61606 6.9707,-4.62695 2.01138,-2.00894 3.56618,-4.35435 4.62695,-6.97071 1.02032,-2.52714 1.54102,-5.19927 1.54102,-7.93945 0,-2.74212 -0.51875,-5.41477 -1.54102,-7.9414 -1.05882,-2.61685 -2.61557,-4.96177 -4.625,-6.97071 -2.00894,-2.00894 -4.35435,-3.56666 -6.9707,-4.625 -2.52909,-1.02275 -5.20123,-1.54297 -7.94141,-1.54297 z m 0.3379,1.38868 -0.0352,2.43359 c -0.20572,-0.003 -0.41342,-0.002 -0.61914,0.002 l -0.0449,-2.43164 c 0.23253,-0.008 0.46473,-0.006 0.69922,-0.004 z m 2.10351,0.14843 c 0.23253,0.0283 0.46327,0.0596 0.69531,0.0977 l -0.38476,2.40234 c -0.20182,-0.0327 -0.40561,-0.0611 -0.60938,-0.0859 z m -4.90625,0.006 0.30469,2.41406 c -0.20377,0.0263 -0.40756,0.0538 -0.61133,0.0879 l -0.38672,-2.40429 c 0.22863,-0.0366 0.46278,-0.0694 0.69336,-0.0977 z m 7.66211,0.53516 c 0.22668,0.0609 0.4491,0.12707 0.67187,0.19726 l -0.72265,2.32422 c -0.19402,-0.0629 -0.39192,-0.12069 -0.58789,-0.17187 z m -10.41602,0.0117 0.64258,2.3457 c -0.19792,0.0551 -0.39582,0.11289 -0.59179,0.17383 l -0.72461,-2.32227 c 0.22278,-0.0726 0.44763,-0.13438 0.67382,-0.19726 z m -12.14062,0.14648 c 0.37415,4.9e-4 0.74851,0.14402 1.0332,0.43164 0.57134,0.57134 0.57134,1.49702 0,2.06836 -0.28762,0.28177 -0.65588,0.42774 -1.0332,0.42774 -0.37488,0 -0.74948,-0.14597 -1.03125,-0.42774 -0.57134,-0.57475 -0.57134,-1.49703 0,-2.07226 0.28469,-0.28567 0.6571,-0.42823 1.03125,-0.42774 z m 34.76367,0.01 c 0.37403,-7.3e-4 0.74949,0.14206 1.03516,0.42773 0.56938,0.57134 0.57475,1.49703 0,2.07227 -0.28372,0.28177 -0.66028,0.42773 -1.03516,0.42773 -0.36952,0 -0.74558,-0.14596 -1.03125,-0.42773 -0.57085,-0.57134 -0.57085,-1.49702 0,-2.06641 0.28469,-0.28859 0.65723,-0.43286 1.03125,-0.43359 z m -9.55859,0.75976 c 0.21547,0.0916 0.42515,0.19011 0.63867,0.29102 l -1.04492,2.19726 c -0.18476,-0.0877 -0.37384,-0.17396 -0.56055,-0.25586 z m -15.71289,0.0137 0.96484,2.23633 c -0.18817,0.0799 -0.37579,0.16665 -0.56055,0.25391 l -1.04687,-2.19922 c 0.21498,-0.10091 0.42564,-0.19791 0.64258,-0.29102 z m 18.20508,1.28711 c 0.19791,0.12188 0.39143,0.24728 0.58984,0.37696 l -1.3457,2.02734 c -0.17355,-0.11407 -0.34599,-0.22576 -0.52149,-0.33398 z m -20.69922,0.0137 1.27734,2.07226 c -0.17355,0.10822 -0.34793,0.21991 -0.51758,0.33399 l -1.35156,-2.02344 c 0.19402,-0.13162 0.39144,-0.25899 0.5918,-0.38281 z m 10.36328,0.85742 c 4.25431,0 8.24657,1.65087 11.24804,4.65234 3.00099,2.99903 4.65235,6.99373 4.65235,11.25 0,4.25383 -1.65527,8.24902 -4.6543,11.25 -2.99952,2.99903 -6.99422,4.65039 -11.24805,4.65039 -4.25431,0 -8.24852,-1.65136 -11.24804,-4.65039 -3.00098,-3.00098 -4.6543,-6.99617 -4.6543,-11.25 0,-4.25432 1.65136,-8.24853 4.65234,-11.24805 3.00147,-3.00098 6.99618,-4.65429 11.25196,-4.65429 z m -0.002,0.72461 c -4.06029,0 -7.87428,1.57741 -10.73828,4.4414 -2.86204,2.86205 -4.43945,6.67652 -4.43945,10.73633 0,4.05981 1.57741,7.87233 4.44141,10.73633 2.86399,2.86205 6.67603,4.44141 10.73632,4.44141 4.05981,0 7.87428,-1.57741 10.73633,-4.44141 2.864,-2.86205 4.43946,-6.67457 4.43946,-10.73633 0,-4.05981 -1.57546,-7.87428 -4.43946,-10.73633 -2.86205,-2.86399 -6.67457,-4.4414 -10.73633,-4.4414 z m 12.62696,0.0527 c 0.18866,0.1599 0.35573,0.30249 0.51953,0.45313 l -1.625,1.81054 c -0.14479,-0.12967 -0.29078,-0.25704 -0.44336,-0.38476 l 0.75781,-0.95117 z m -25.26953,0.0137 1.5625,1.86524 c -0.15795,0.13113 -0.31275,0.26731 -0.46485,0.40429 l -1.6289,-1.80664 c 0.175,-0.15989 0.35039,-0.31274 0.53125,-0.46289 z m 27.28515,1.92383 c 0.15405,0.17306 0.30689,0.35381 0.45899,0.5332 l -1.86524,1.5625 c -0.13162,-0.15794 -0.26731,-0.31274 -0.40234,-0.46484 z m -29.30664,0.0273 1.8125,1.62696 c -0.13308,0.14819 -0.26339,0.30103 -0.39453,0.45508 l -0.0391,0.0449 -0.6875,-0.63477 -1.14844,-0.96093 0.01,-0.0117 c 0.14673,-0.17501 0.29517,-0.35038 0.44726,-0.51954 z m 31.03125,2.19141 c 0.13309,0.19402 0.26095,0.39193 0.38477,0.59375 l -2.07227,1.2793 c -0.10871,-0.1755 -0.21943,-0.34988 -0.33594,-0.51758 z m -32.75195,0.0254 2.02344,1.35352 c -0.11456,0.17111 -0.22528,0.34257 -0.33399,0.51758 l -2.07031,-1.28125 c 0.12382,-0.19792 0.24972,-0.39534 0.38086,-0.58985 z m 34.14453,2.41602 c 0.10091,0.21547 0.19742,0.42759 0.29297,0.64258 l -2.23047,0.97265 c -0.0819,-0.18866 -0.16811,-0.37774 -0.25781,-0.56445 z m -35.53711,0.0273 2.19922,1.04883 c -0.0897,0.18427 -0.17591,0.37189 -0.25781,0.56055 l -2.23047,-0.97071 c 0.0912,-0.21547 0.18815,-0.4271 0.28906,-0.63867 z m 36.56641,2.58984 c 0.0683,0.22474 0.13633,0.45106 0.19922,0.67774 l -2.34961,0.63867 c -0.0551,-0.19646 -0.10899,-0.39387 -0.16993,-0.58789 z m -37.5918,0.0254 2.32227,0.7246 c -0.059,0.19208 -0.11435,0.38998 -0.16993,0.5879 l -2.34765,-0.64063 c 0.0609,-0.22473 0.12706,-0.44909 0.19531,-0.67187 z m 38.24023,2.70703 c 0.0361,0.23253 0.0689,0.46473 0.0996,0.69922 l -2.41406,0.30468 c -0.0268,-0.20377 -0.0557,-0.4056 -0.0898,-0.60937 z m -38.88281,0.0254 2.4043,0.38476 c -0.0307,0.20182 -0.0611,0.40561 -0.0859,0.60742 l -2.41601,-0.29687 c 0.0302,-0.23253 0.0616,-0.46522 0.0976,-0.69531 z m -5.11328,1.68359 c 0.80913,0 1.46094,0.65366 1.46094,1.46289 0,0.80533 -0.65561,1.46289 -1.46094,1.46289 h -0.004 C 258.6537,268.69141 258,268.03775 258,267.22852 c 0,-0.80534 0.65361,-1.45899 1.46289,-1.45899 z m 49.1543,0.0156 c 0.80923,-0.006 1.46289,0.65365 1.46289,1.45703 v 0.006 c 0,0.80582 -0.65366,1.45704 -1.46289,1.46289 -0.80582,0 -1.46289,-0.65707 -1.46289,-1.46289 0,-0.80923 0.65366,-1.46289 1.46289,-1.46289 z m -4.90625,1.07226 c 0.006,0.23448 0.006,0.4706 0,0.70508 l -2.43164,-0.041 c 0.004,-0.20377 0.004,-0.40951 0,-0.61328 z m -39.37696,0.0215 2.43164,0.0449 c -0.004,0.20767 -0.004,0.41147 0,0.61719 l -2.43164,0.0449 c -0.006,-0.23643 -0.006,-0.4706 0,-0.70703 z m 36.81836,2.48632 2.41407,0.29688 c -0.0263,0.23253 -0.0596,0.46326 -0.0957,0.69141 l -2.40429,-0.37696 c 0.0346,-0.20182 0.0611,-0.40561 0.0859,-0.61133 z m -34.25586,0.0176 c 0.0244,0.20377 0.0557,0.40756 0.0879,0.60938 l -2.4043,0.38867 c -0.038,-0.23253 -0.0694,-0.46278 -0.0977,-0.69727 z m 33.78321,2.39649 2.34961,0.63867 c -0.0609,0.22473 -0.12463,0.44714 -0.19532,0.67187 l -2.32421,-0.71484 c 0.059,-0.19792 0.11678,-0.39778 0.16992,-0.5957 z m -33.30664,0.0215 c 0.057,0.19597 0.11094,0.39583 0.17187,0.58984 l -2.32226,0.72461 c -0.0702,-0.22473 -0.13438,-0.44909 -0.19727,-0.67578 z m 32.49609,2.30274 2.23047,0.96484 c -0.0892,0.21547 -0.18815,0.42906 -0.28906,0.64258 l -2.19532,-1.05078 c 0.0878,-0.18476 0.17201,-0.36994 0.25391,-0.55664 z m -31.67969,0.0215 c 0.0799,0.18817 0.1647,0.37384 0.25391,0.5625 l -2.19727,1.04297 c -0.10286,-0.21157 -0.1979,-0.42369 -0.29101,-0.64063 z m 30.54102,2.1582 2.07031,1.27735 c -0.12187,0.20035 -0.24729,0.39582 -0.3789,0.58984 l -2.02149,-1.34961 c 0.11407,-0.17159 0.22381,-0.34208 0.33008,-0.51758 z m -29.4043,0.0254 c 0.10871,0.1755 0.21943,0.346 0.33399,0.51953 l -2.02539,1.34961 c -0.13114,-0.19402 -0.25704,-0.39339 -0.38086,-0.5957 z m 1.43945,1.99805 c 0.13163,0.15795 0.26732,0.31031 0.4043,0.46289 l -1.8125,1.62891 c -0.15404,-0.1755 -0.3064,-0.35234 -0.45703,-0.53125 z m 26.5,0.01 1.9043,1.51953 -0.0195,0.0215 c -0.15795,0.18866 -0.30052,0.35183 -0.44336,0.51367 l -1.81641,-1.61914 c 0.12773,-0.14283 0.25314,-0.28686 0.375,-0.43554 z m -1.67773,1.74218 1.63086,1.8086 c -0.17355,0.15843 -0.35234,0.31031 -0.5293,0.46093 l -1.56445,-1.86328 c 0.156,-0.13357 0.31079,-0.26682 0.46289,-0.40625 z m -23.11328,0.0176 c 0.15405,0.13699 0.30885,0.27268 0.4668,0.40625 l 0.0547,0.043 -1.57226,1.85742 -0.0293,-0.0234 c -0.19402,-0.1638 -0.36991,-0.31422 -0.54297,-0.47071 z m 21.17383,1.5 1.35742,2.01953 c -0.19792,0.13163 -0.39779,0.26094 -0.59766,0.38282 l -1.27929,-2.07032 c 0.17549,-0.10627 0.34793,-0.21796 0.51953,-0.33203 z m -19.1836,0.0449 c 0.17306,0.11603 0.34453,0.22723 0.52149,0.33203 l -1.27539,2.07422 c -0.19597,-0.12382 -0.39339,-0.24972 -0.58985,-0.3789 z m 17.04297,1.17579 1.05274,2.19531 c -0.20962,0.10091 -0.42565,0.1979 -0.64063,0.29101 l -0.9707,-2.23242 c 0.18622,-0.0819 0.37578,-0.1647 0.55859,-0.2539 z m -14.90039,0.0391 c 0.18622,0.0873 0.37385,0.17201 0.56446,0.2539 l -0.96876,2.23243 c -0.21302,-0.0912 -0.42563,-0.18767 -0.63671,-0.28711 z m -9.97851,0.32031 c 0.37414,0.001 0.74851,0.14597 1.0332,0.43164 0.01,0.009 0.0215,0.0137 0.0254,0.0254 0.009,0.007 0.0137,0.0122 0.0234,0.0215 0.56938,0.57133 0.57524,1.49315 0.004,2.06835 -0.28713,0.28714 -0.66174,0.42969 -1.03711,0.42969 -0.36902,0 -0.74753,-0.14206 -1.03515,-0.42578 -0.003,-0.009 -0.008,-0.0156 -0.0117,-0.0195 -0.0151,-0.009 -0.0259,-0.0235 -0.041,-0.0332 h 0.006 c -0.57523,-0.57524 -0.57133,-1.50093 0,-2.07227 0.2847,-0.28567 0.65906,-0.42724 1.03321,-0.42578 z m 34.8125,0.0117 c 0.3739,-4.3e-4 0.74655,0.14231 1.03125,0.42969 0.57133,0.56938 0.57719,1.49702 0.006,2.0664 -0.28762,0.28713 -0.66223,0.42774 -1.03711,0.42774 -0.37147,0 -0.74558,-0.14061 -1.02735,-0.42774 -0.57523,-0.56938 -0.57524,-1.49702 -0.006,-2.0664 0.28567,-0.28567 0.6593,-0.42926 1.03321,-0.42969 z m -12.22266,0.53125 0.72852,2.32226 c -0.22474,0.0702 -0.4491,0.13634 -0.67579,0.19922 l -0.64648,-2.34765 c 0.19792,-0.0556 0.39534,-0.1129 0.59375,-0.17383 z m -10.31641,0.0293 c 0.19402,0.0609 0.38949,0.11678 0.58789,0.16992 l -0.63085,2.34961 c -0.22669,-0.0609 -0.45105,-0.12463 -0.67579,-0.19336 z m 7.91797,0.53906 0.39258,2.40234 c -0.23009,0.038 -0.46327,0.0709 -0.69531,0.0996 l -0.31055,-2.41211 c 0.20572,-0.0268 0.40951,-0.0552 0.61328,-0.0898 z m -5.52148,0.0156 c 0.20377,0.0341 0.4056,0.063 0.60937,0.0859 l -0.29687,2.41602 c -0.23058,-0.0283 -0.46278,-0.0616 -0.69141,-0.0996 z m 3.0664,0.20899 0.0527,2.43164 c -0.234,0.005 -0.46913,0.008 -0.70313,0.004 l 0.0352,-2.43359 c 0.20377,0.004 0.41146,0.004 0.61523,-0.002 z m -0.29882,5.88086 c 0.80923,-0.006 1.46289,0.6477 1.46679,1.45703 0,0.80908 -0.65756,1.46304 -1.46289,1.46875 -0.80923,0 -1.46289,-0.65361 -1.46679,-1.46289 0,-0.80914 0.65365,-1.46289 1.46289,-1.46289 z"
               style="fill:#000000;fill-opacity:1;fill-rule:nonzero;stroke:none;stroke-width:0.0487489" />
            <path
               d="m 1210.9,1295.45 c -2.58,3.47 -4.53,7.46 -5.74,11.44 -1.18,4.14 -1.72,8.24 -1.76,12.35 -0.08,4.02 0.31,7.93 1.13,11.95 0.16,0.98 0.47,1.95 0.7,3.01 0.12,0.47 0.51,1.48 0.67,1.91 l 0.58,1.49 c 0.82,1.95 1.72,3.75 2.74,5.54 3.9,6.96 9.61,13.48 17.11,17.93 0.94,0.59 1.91,1.1 2.85,1.6 l 1.56,0.75 1.41,0.62 c 1.37,0.59 2.69,1.13 4.14,1.88 2.81,1.4 6.01,3.12 9.84,4.64 3.75,1.53 8.01,2.62 12.07,3.25 4.1,0.58 8.05,0.78 11.92,0.78 7.61,-0.16 14.8,-1.02 21.83,-2.07 3.44,-0.51 7,-1.17 10.32,-1.84 l 1.21,-0.16 0.93,-0.11 2.07,-0.31 c 1.33,-0.12 2.66,-0.24 3.99,-0.32 8.01,-0.23 15.86,1.41 23.4,4.65 0,0 0.08,0 0.08,0.08 0.03,0.04 0.11,0 0.15,0.08 2.5,1.05 4.88,2.26 7.31,3.67 4.8,2.77 9.41,6.25 13.67,10.12 l 0.12,0.07 c 4.64,3.72 8.71,7.74 10.74,11.57 3.28,6.05 3.79,8.32 0.39,8.79 -2.81,0.31 -8.32,-0.63 -17.19,-1.68 -0.74,-0.08 -1.52,-0.2 -2.38,-0.32 h -0.04 c -7.23,-0.82 -14.34,-1.68 -21.45,-2.42 -7.73,-0.66 -15.27,-1.79 -23.63,-2.42 -4.18,-0.19 -8.59,-0.08 -13.2,0.82 -4.53,0.94 -9.26,2.77 -13.48,5.78 -4.14,2.97 -7.66,6.84 -10,11.1 -1.17,2.07 -2.15,4.25 -2.93,6.4 -0.82,2.35 -1.17,3.75 -1.68,5.35 -1.76,6.57 -4.18,12.82 -6.68,18.99 -2.58,6.05 -5.15,12.07 -8.2,17.58 -2.97,5.43 -6.29,10.43 -10.24,13.67 -3.75,3.24 -8.94,5.35 -14.21,5.78 -5.32,0.47 -11.14,-0.66 -16.33,-3.01 -0.63,-0.27 -1.33,-0.62 -1.76,-0.86 -0.47,-0.19 -1.02,-0.58 -1.56,-0.97 -1.1,-0.75 -2.15,-1.65 -3.21,-2.62 -2.03,-1.88 -3.75,-4.03 -5.07,-6.45 -2.74,-4.68 -3.75,-10.19 -3.09,-15.9 0.27,-2.89 1.02,-5.7 2.03,-8.63 l 0.43,-1.01 v -0.28 c 0.04,-0.11 0.12,-0.15 0.12,-0.15 l 0.19,-0.51 c 0.24,-0.51 0.32,-0.63 0.51,-0.94 0.08,-0.19 0.24,-0.51 0.39,-0.78 0.67,-1.09 1.41,-2.19 2.27,-3.13 3.44,-3.75 8.83,-5.66 14.53,-5.46 5.66,0.04 11.52,2.07 16.17,5.43 4.65,3.43 7.81,8.43 8.48,13.9 0.04,0.28 0.11,0.71 0.19,1.02 0.86,2.3 3.4,3.43 5.71,2.61 2.3,-0.85 3.55,-3.28 2.73,-5.5 -0.43,-3.71 -1.68,-7.35 -3.55,-10.47 -2.04,-3.52 -4.73,-6.56 -7.78,-8.99 -6.17,-4.92 -13.63,-7.81 -21.56,-8.24 -3.98,-0.19 -8.09,0.24 -11.99,1.49 -3.99,1.29 -7.74,3.51 -10.75,6.56 -1.52,1.4 -2.89,3.12 -4.06,4.84 -0.23,0.47 -0.51,0.9 -0.82,1.41 -0.31,0.51 -0.54,1.05 -0.74,1.37 l -0.31,0.58 -0.31,0.82 -0.55,1.29 c -1.45,3.52 -2.62,7.19 -3.24,11.09 -1.29,7.82 -0.2,16.41 3.55,23.72 1.84,3.67 4.18,6.99 6.99,9.84 1.37,1.44 2.89,2.85 4.49,4.06 0.83,0.67 1.68,1.29 2.74,1.92 0.98,0.62 1.84,1.05 2.69,1.56 7.04,3.47 14.77,5.7 23.13,5.55 8.4,-0.2 16.64,-2.82 23.59,-7.9 6.92,-5.03 11.64,-11.48 15.59,-17.57 3.98,-6.21 7.23,-12.5 10.35,-18.79 3.09,-6.29 5.94,-12.54 9.38,-18.6 1.79,-3.43 2.85,-5.04 4.33,-6.44 1.45,-1.49 2.81,-2.46 4.38,-3.2 1.44,-0.86 3.16,-1.65 5.15,-2.31 2.03,-0.66 4.46,-1.09 7.03,-1.33 5.36,-0.47 11.25,0.9 16.64,3.79 3.36,1.8 6.57,3.91 9.65,6.29 0,0 6.06,3.75 11.45,11.52 -10.7,19.93 -12.62,42.86 -5.51,62.5 -4.92,5.94 -9.76,12.15 -14.14,18.87 -4.65,7.11 -8.98,14.85 -12.03,23.63 -1.49,4.42 -2.74,9.03 -3.4,13.95 -0.62,4.88 -0.62,10.08 0.2,15.16 0.46,2.5 1.09,5 1.91,7.42 0.2,0.58 0.43,1.21 0.66,1.76 l 0.2,0.43 c 0,0.07 0.04,0.23 0.12,0.31 l 0.31,0.62 1.13,2.42 c 1.53,3.25 2.85,6.53 3.95,9.85 2.15,6.56 3.43,13.44 3.59,19.18 0.16,2.93 -0.08,5.35 -0.59,7.11 -0.23,0.9 -0.62,1.75 -1.32,3.01 -0.63,1.17 -1.6,2.53 -2.62,4.33 -5.7,7.46 -15.35,12.93 -24.84,13.79 -9.77,0.9 -17.97,-3.28 -22.19,-12.54 -0.55,-1.05 -1.02,-2.26 -1.45,-3.51 -0.23,-0.59 -0.43,-1.22 -0.58,-1.84 l -0.67,-2.31 c -0.66,-2.22 -1.09,-4.88 -1.05,-7.07 0,-4.61 1.68,-8.12 5.27,-10.78 3.6,-2.69 8.99,-4.1 14.45,-4.1 5.36,-0.08 11.02,1.21 15.32,3.99 l 0.08,-0.08 c 1.36,0.9 3.51,0.58 5,-0.86 1.6,-1.68 1.83,-4.14 0.39,-5.59 -0.04,-0.08 -0.08,-0.11 -0.2,-0.15 -2.81,-2.58 -6.09,-4.34 -9.45,-5.71 -3.4,-1.29 -6.92,-2.18 -10.51,-2.57 -7.15,-0.79 -14.84,0 -22.03,4.06 -3.52,2.03 -6.8,5.08 -9.06,8.83 -2.31,3.75 -3.52,7.96 -3.91,11.99 -0.39,4.06 -0.08,7.77 0.59,11.64 l 0.54,2.46 c 0.16,0.86 0.39,1.76 0.63,2.66 0.51,1.75 1.05,3.63 1.79,5.35 2.7,7.07 7.82,14.1 14.89,18.55 7.07,4.49 15.43,6.17 23.24,5.9 7.85,-0.35 15.27,-2.5 22.03,-5.94 6.8,-3.43 12.97,-8.16 17.93,-14.33 l 0.04,-0.12 0.55,-0.66 c 0.82,-1.22 1.91,-2.62 3.16,-4.57 1.29,-1.88 2.62,-4.3 3.59,-6.84 1.96,-5.2 2.39,-10.24 2.23,-14.69 -0.35,-8.87 -2.3,-16.48 -3.75,-24.14 -0.74,-3.75 -1.48,-7.54 -2.15,-11.33 l -0.43,-2.85 -0.11,-0.66 -0.04,-0.39 v -0.24 c -0.12,-0.27 -0.08,-0.54 -0.16,-0.86 -0.12,-1.09 -0.08,-2.26 -0.04,-3.4 0.43,-4.49 2.19,-9.1 5.2,-13.67 3.08,-4.61 7.18,-9.1 11.83,-13.24 3.71,-3.2 7.66,-6.33 11.8,-9.18 27.19,18.01 65.39,14.49 92.81,-9.41 4.65,3 9.14,6.91 13.36,11.79 0.08,0.08 0.08,0.12 0.16,0.24 0.23,0.23 0.39,0.47 0.58,0.74 2.82,3.48 5.36,7.11 7.62,10.82 2.23,3.67 4.26,7.46 5.59,11.25 1.25,3.83 1.83,7.7 1.6,11.06 -0.28,3.43 -1.21,6.4 -2.89,9.1 -0.78,1.29 -1.76,2.58 -2.89,3.79 l -2.5,2.53 -2.5,2.5 c -3.32,3.33 -6.84,6.49 -10.39,9.58 -7.11,6.25 -14.65,11.83 -22.66,17.92 -4.02,3.13 -8.2,6.37 -12.34,11.02 -2.07,2.34 -3.99,5.12 -5.43,8.44 -0.75,1.56 -1.29,3.28 -1.64,5 -0.08,0.39 -0.2,0.82 -0.24,1.25 l -0.19,1.05 -0.16,1.29 -0.16,1.1 c -0.5,6.17 0.36,12.3 2.23,17.89 0.94,2.77 2.07,5.35 3.44,7.93 0.66,1.29 1.37,2.5 2.19,3.75 0.39,0.58 0.78,1.21 1.28,1.75 0.36,0.63 0.75,1.06 1.22,1.68 l 0.07,0.12 c 0,0 0.04,-0.04 0,0.04 0.08,0.08 0.12,0.12 0.16,0.19 0.16,0.24 0.31,0.36 0.43,0.55 l 0.74,0.94 c 0.51,0.59 1.02,1.09 1.52,1.64 1.06,1.05 2.11,2.07 3.25,3.09 2.22,1.91 4.68,3.55 7.3,5.07 5.2,2.89 11.33,4.65 17.38,4.73 6.18,0.08 12,-1.44 17.15,-3.83 2.58,-1.17 5.08,-2.54 7.35,-3.98 2.54,-1.68 4.72,-3.44 6.75,-5.59 4.18,-4.26 7.31,-10.04 8.21,-16.21 0.9,-6.01 -0.28,-12.15 -2.62,-17.42 -2.38,-5.23 -5.9,-9.84 -10.31,-13.52 -4.38,-3.55 -9.85,-6.36 -15.98,-6.79 l -0.08,0.11 c -0.23,-0.11 -0.47,-0.07 -0.7,-0.07 -2.27,-0.2 -4.22,1.68 -4.37,4.14 -0.12,2.42 1.64,4.49 3.86,4.61 0.2,0.03 0.47,0.03 0.47,0.03 3.75,0.43 7.46,2.5 10.55,5.28 3.05,2.81 5.51,6.4 6.95,10.23 1.49,3.83 1.95,7.97 1.21,11.53 -0.78,3.75 -2.77,6.95 -5.54,9.61 -1.45,1.28 -3.21,2.57 -4.85,3.47 -1.99,1.17 -3.9,2.11 -5.86,2.85 -3.9,1.53 -7.89,2.23 -11.68,1.96 -3.75,-0.28 -7.42,-1.49 -10.7,-3.56 -1.64,-1.05 -3.28,-2.26 -4.65,-3.59 -0.74,-0.74 -1.44,-1.49 -2.07,-2.19 -0.31,-0.39 -0.59,-0.82 -0.9,-1.17 l -0.43,-0.59 c -0.04,-0.04 -0.15,-0.27 -0.19,-0.35 l -0.16,-0.19 -0.31,-0.36 -0.59,-0.97 -0.82,-1.29 c -0.47,-0.9 -0.97,-1.8 -1.4,-2.7 -0.82,-1.87 -1.53,-3.79 -2.11,-5.7 -0.98,-3.83 -1.33,-7.69 -0.78,-11.25 l 0.07,-0.74 0.16,-0.59 0.08,-0.43 0.08,-0.23 0.15,-0.59 c 0.16,-0.66 0.43,-1.25 0.74,-1.87 0.67,-1.21 1.61,-2.42 2.86,-3.71 2.57,-2.62 6.29,-5.28 10.19,-7.97 7.97,-5.35 16.52,-10.98 24.61,-17.23 4.06,-3.08 8.01,-6.37 11.88,-9.73 l 2.89,-2.57 2.81,-2.54 c 2.34,-2.31 4.53,-4.73 6.37,-7.62 3.71,-5.62 5.66,-12.3 6.21,-18.63 0.58,-6.45 0.07,-12.46 -0.82,-18.24 -0.9,-5.75 -2.27,-11.25 -3.95,-16.61 -1.64,-5.27 -3.67,-10.39 -5.82,-15.39 -1.95,-4.57 -4.06,-9.06 -6.29,-13.43 0,0 0,-0.08 -0.08,-0.16 -0.82,-2.15 -10.39,-28.24 12.97,-8.87 0.39,0.31 0.74,0.67 1.14,0.98 0.19,0.15 0.42,0.39 0.7,0.55 1.72,1.56 3.36,3 4.96,4.6 6.44,5.98 12.34,12.5 17.42,19.38 5.12,6.84 9.14,14.18 11.64,21.76 0.67,1.91 1.13,3.71 1.6,5.78 l 1.49,7.03 2.77,14.18 2.81,14.34 c 1.02,4.8 2.03,9.72 3.6,14.68 1.48,5 3.75,10.16 6.76,14.65 1.52,2.19 3.16,4.22 4.84,6.21 1.87,2.23 3.87,4.07 5.98,5.71 4.25,3.36 8.86,5.86 13.59,7.85 2.34,1.01 4.76,1.87 7.15,2.65 2.5,0.78 4.76,1.41 7.58,1.96 l 0.58,0.15 0.47,-0.04 c 1.84,-0.07 3.13,-0.35 4.57,-0.58 1.41,-0.24 2.81,-0.55 4.22,-0.98 2.77,-0.74 5.51,-1.72 8.12,-2.97 5.24,-2.42 10,-5.97 13.83,-10.47 3.91,-4.37 6.68,-9.61 8.48,-15.03 0.78,-2.74 1.41,-5.47 1.84,-8.25 0.46,-3.01 0.54,-5.9 0.19,-8.9 -0.62,-6.06 -3.48,-12.03 -7.85,-16.25 -4.42,-4.22 -9.84,-6.96 -15.43,-8.44 -5.55,-1.52 -11.37,-1.92 -17.07,-1.13 -5.51,0.86 -11.21,2.57 -16.06,6.83 -0.15,0.12 -0.31,0.28 -0.43,0.43 h -0.03 c -2.04,1.99 -2.19,5 -0.43,6.72 1.68,1.76 4.64,1.52 6.64,-0.39 l 0.04,-0.04 0.03,-0.08 c 2.66,-2.61 6.96,-4.37 11.45,-5.08 4.53,-0.62 9.3,-0.35 13.79,0.82 4.41,1.18 8.59,3.25 11.68,6.26 3.05,3.04 4.88,6.99 5.27,11.24 0.31,2.15 0.16,4.5 -0.15,6.61 -0.43,2.38 -0.98,4.65 -1.76,6.95 -1.6,4.37 -3.83,8.44 -6.92,11.8 -3.04,3.32 -6.87,5.9 -11.13,7.73 -2.07,0.98 -4.26,1.68 -6.52,2.23 -1.13,0.19 -2.31,0.51 -3.44,0.62 -0.78,0.16 -1.76,0.24 -2.54,0.28 -1.8,-0.43 -3.83,-1.1 -5.7,-1.76 -2.07,-0.78 -4.14,-1.64 -6.1,-2.62 -4.02,-1.87 -7.69,-4.1 -10.85,-6.8 -1.61,-1.32 -3.05,-2.89 -4.22,-4.29 -1.25,-1.72 -2.5,-3.52 -3.52,-5.35 -2.11,-3.6 -3.44,-7.35 -4.34,-11.61 -1.75,-8.47 -2.14,-17.96 -2.34,-27.42 -0.04,-4.72 0,-9.45 0.04,-14.26 l 0.16,-7.18 c 0,-2.66 -0.2,-5.59 -0.51,-8.32 -1.29,-11.14 -4.85,-21.53 -9.14,-31.21 -4.38,-9.73 -9.61,-18.75 -15.28,-27.47 -5.7,-8.75 -11.79,-16.99 -18.28,-25.03 -0.43,-0.55 -0.9,-1.1 -1.29,-1.64 5.47,3.2 11.14,6.24 17.11,8.98 5.08,2.23 10.32,4.37 15.9,6.13 5.71,1.72 11.76,3.13 18.6,3.52 6.71,0.39 14.53,-0.35 22.03,-3.91 3.67,-1.72 7.03,-4.14 9.76,-6.87 2.78,-2.74 5.04,-5.86 6.56,-8.71 0.59,-1.1 1.06,-2.23 1.57,-3.36 0.58,-1.14 1.17,-2.15 1.79,-3.25 l 3.52,-6.4 6.84,-12.81 c 4.37,-8.52 8.78,-17 13.63,-24.54 2.38,-3.78 5.04,-7.22 7.77,-10 1.45,-1.32 2.85,-2.46 4.3,-3.36 0.66,-0.39 1.41,-0.82 2.15,-1.13 0.93,-0.27 1.72,-0.55 2.65,-0.82 3.6,-0.94 7.58,-1.09 11.53,-0.55 1.99,0.32 3.98,0.82 5.93,1.37 0.98,0.35 2,0.71 2.9,1.1 l 1.4,0.58 1.13,0.55 0.82,0.39 -0.31,-0.16 c 0.16,0.08 0.71,0.39 1.1,0.67 0.46,0.19 0.86,0.47 1.32,0.74 0.82,0.58 1.68,1.17 2.5,1.84 1.64,1.28 3.09,2.77 4.42,4.37 2.58,3.16 4.41,6.84 5.15,10.74 0.82,3.95 0.55,8.21 -0.58,12.39 -0.55,2.14 -1.21,4.17 -2.19,6.32 -0.82,1.84 -1.84,3.83 -3.05,5.43 -2.42,3.32 -5.62,5.78 -9.37,6.99 -3.75,1.26 -8.05,1.18 -12.07,0.04 -4.06,-1.05 -7.93,-3.2 -11.13,-6.01 -3.13,-2.66 -5.43,-6.1 -6.25,-9.65 -0.04,-0.12 -0.04,-0.23 -0.08,-0.39 -0.24,-0.66 -0.59,-1.37 -1.17,-1.91 -1.76,-1.76 -4.61,-1.76 -6.33,0 -1.37,1.28 -1.64,3.39 -0.82,5.03 1.56,5.51 4.96,9.97 8.79,13.44 4.18,3.79 9.14,6.56 14.57,8.17 5.43,1.48 11.4,1.79 17.15,0.11 5.74,-1.64 10.82,-5.39 14.33,-9.96 1.8,-2.26 3.24,-4.57 4.53,-7.22 1.14,-2.39 2.15,-5 2.97,-7.58 1.6,-5.31 2.23,-11.14 1.37,-16.96 -0.74,-5.82 -3.2,-11.4 -6.6,-16.09 -1.68,-2.3 -3.68,-4.41 -5.75,-6.37 -1.09,-0.97 -2.18,-1.87 -3.35,-2.73 -0.63,-0.39 -1.22,-0.82 -1.76,-1.25 -0.63,-0.35 -1.02,-0.67 -1.8,-1.06 -0.74,-0.46 -1.25,-0.74 -1.84,-1.09 -0.62,-0.27 -1.25,-0.66 -1.83,-0.94 -1.25,-0.62 -2.5,-1.17 -3.79,-1.68 -2.5,-0.97 -5.16,-1.79 -7.89,-2.34 -5.39,-1.17 -11.25,-1.41 -16.95,-0.35 -1.49,0.27 -2.97,0.62 -4.34,1.09 -1.52,0.43 -3.05,1.06 -4.38,1.72 -2.85,1.33 -5.31,3.09 -7.5,4.81 -4.49,3.59 -7.96,7.53 -11.36,11.4 -3.36,3.83 -6.45,7.81 -9.38,11.68 l -8.79,11.6 -8.63,11.41 -4.3,5.58 c -0.78,0.94 -1.48,1.84 -2.26,2.78 -0.78,0.86 -1.64,1.72 -2.42,2.58 -2.19,2.14 -3.79,2.54 -5.32,2.54 -1.52,0.03 -3.55,-0.32 -6.25,-1.25 -5.46,-1.88 -12.3,-6.14 -18.71,-11.22 -6.44,-5.07 -12.81,-11.13 -18.82,-17.42 -0.4,-0.43 -0.79,-0.78 -1.14,-1.25 6.88,-6.09 13.64,-12.38 20.12,-19.41 3.98,-4.45 8.05,-9.14 11.6,-14.49 3.63,-5.32 6.95,-11.49 9.26,-18.6 2.19,-7.11 2.97,-15.5 1.33,-23.16 -0.82,-3.87 -2.19,-7.38 -3.75,-10.67 -0.47,-0.85 -0.67,-1.28 -1.02,-1.83 l -0.9,-1.56 -1.68,-3.13 c -4.53,-8.32 -8.82,-16.68 -12.26,-25.08 -3.56,-8.4 -6.41,-16.99 -7.07,-24.96 -0.35,-3.87 -0.16,-7.61 0.86,-11.05 0.23,-0.86 0.54,-1.68 0.93,-2.54 0.04,-0.12 0.24,-0.47 0.43,-0.78 0.16,-0.35 0.43,-0.71 0.63,-1.02 0.86,-1.4 2.11,-2.69 3.51,-4.02 5.75,-5.12 14.5,-8.99 22.58,-11.29 h -0.35 l 0.43,-0.08 c -0.04,0.08 -0.04,0.08 -0.08,0.08 l 0.24,-0.08 c 0.39,0 0.9,0 1.29,0.08 0.89,0 1.79,0.08 2.73,0.16 1.84,0.27 3.63,0.7 5.43,1.28 3.55,1.22 6.8,3.17 9.57,5.75 2.85,2.54 5.23,5.74 7.03,9.33 l 0.67,1.45 h 0.03 v 0.04 l 0.04,0.04 v 0.11 l 0.2,0.39 0.31,0.78 c 0.35,0.83 0.7,1.72 1.02,2.66 0.54,1.8 0.9,3.71 0.93,5.47 0.16,3.52 -0.74,6.84 -2.77,9.61 -2.03,2.81 -5.12,4.96 -8.59,6.33 -3.52,1.33 -7.42,2.03 -11.21,1.83 -3.75,-0.23 -7.31,-0.54 -10.78,-1.83 -2.47,-1.29 -5.47,-0.39 -6.92,2.07 -1.41,2.3 -0.86,5.35 1.25,6.91 l 0.16,0.16 c 0.47,0.15 0.82,0.39 1.25,0.55 4.8,2.42 9.84,3.32 14.76,3.32 5.35,0 10.63,-1.02 15.59,-3.13 4.84,-2.11 9.57,-5.35 12.97,-10 3.4,-4.65 5.11,-10.62 4.88,-16.17 -0.04,-2.78 -0.51,-5.47 -1.17,-8.01 -0.31,-1.29 -0.7,-2.5 -1.21,-3.87 l -0.67,-1.75 -0.82,-1.68 c -2.14,-4.61 -5,-9.14 -8.63,-13.01 -3.63,-3.83 -8.2,-6.99 -13.16,-9.18 -2.46,-1.13 -5.3996,-1.8235 -9.2625,-2.4597 -4.7493,-0.7821 -10.3526,-0.095 -15.4845,1.083 -3.4293,0.7868 -7.7861,2.3199 -10.2861,3.2999 -5,1.99 -7.3969,3.6268 -12.1569,7.1368 -2.34,1.72 -4.61,3.79 -6.64,6.33 -0.59,0.62 -1.06,1.29 -1.52,1.95 -0.47,0.67 -0.9,1.33 -1.49,2.23 -0.74,1.33 -1.44,2.73 -2.07,4.14 -2.54,5.66 -3.67,11.72 -3.98,17.46 -0.36,5.78 0.11,11.29 0.82,16.6 0.74,5.31 1.75,10.47 2.96,15.47 2.39,10.08 15.9,51.06 -7.73,56.06 0,0 -0.04,0.07 -0.16,0.07 -2.81,0.9 -49.21,13.95 -111.21,-43.75 -19.45,-17.89 13.13,-46.09 13.13,-46.09 6.99,-6.99 14.14,-13.98 21.05,-22.07 3.48,-4.1 6.84,-8.48 9.57,-14.02 1.37,-2.82 2.5,-5.9 3.05,-9.3 0.31,-1.68 0.39,-3.4 0.43,-5.16 -0.04,-0.43 -0.08,-0.86 -0.08,-1.33 l -0.08,-0.54 -0.04,-0.51 -0.11,-1.21 -0.16,-1.09 c -0.98,-6.1 -3.28,-11.68 -6.4,-16.53 -1.57,-2.34 -3.25,-4.72 -5.2,-6.79 -0.86,-1.1 -1.88,-2.11 -2.93,-3.05 -0.47,-0.47 -1.05,-0.94 -1.6,-1.45 -0.55,-0.5 -1.02,-0.9 -1.84,-1.48 -0.54,-0.55 -0.93,-0.74 -1.48,-1.13 -0.63,-0.51 -1.17,-0.86 -1.8,-1.29 -1.21,-0.78 -2.5,-1.49 -3.75,-2.15 -2.54,-1.29 -5.23,-2.38 -8.08,-3.21 -5.59,-1.52 -11.72,-1.67 -17.43,-0.42 -5.74,1.21 -10.93,3.94 -15.31,7.26 -2.15,1.68 -4.26,3.56 -6.01,5.43 -2.04,2.15 -3.75,4.3 -5.24,6.76 -2.97,4.88 -4.76,10.94 -4.26,16.83 0.35,5.94 2.74,11.41 6.1,15.94 3.28,4.57 7.61,8.24 12.57,10.86 4.77,2.58 10.36,4.14 16.29,3.6 1.18,0.03 2.5,-0.43 3.48,-1.37 1.8,-1.84 1.84,-4.69 0.16,-6.37 -1.17,-1.13 -2.82,-1.48 -4.26,-1.05 -3.67,0.58 -7.89,-0.43 -11.64,-2.39 -3.79,-1.99 -7.11,-4.88 -9.65,-8.36 -2.46,-3.39 -3.95,-7.46 -4.1,-11.36 -0.16,-3.99 1.05,-7.86 3.28,-11.29 1.09,-1.76 2.58,-3.44 4.02,-4.81 1.72,-1.6 3.4,-3 5.2,-4.22 3.55,-2.5 7.5,-4.18 11.44,-4.8 3.95,-0.66 8.05,-0.16 11.88,1.21 1.95,0.63 3.79,1.56 5.55,2.62 0.85,0.54 1.71,1.17 2.53,1.76 0.43,0.35 0.82,0.66 1.22,0.93 0.31,0.32 0.82,0.74 0.86,0.86 l -0.2,-0.27 0.7,0.66 0.94,0.9 1.02,1.09 c 0.7,0.79 1.36,1.57 2.03,2.43 1.25,1.68 2.42,3.4 3.36,5.23 1.87,3.63 2.89,7.5 3.12,11.21 l 0.08,0.71 -0.04,1.17 v 0.11 l -0.04,0.08 c 0.04,0.2 0.04,0.35 0,0.55 -0.08,0.74 -0.19,1.48 -0.43,2.23 -0.39,1.4 -1.09,2.93 -2.07,4.53 -1.95,3.08 -4.84,6.33 -8.12,9.49 -6.57,6.25 -14.3,12.23 -21.96,18.28 l -11.72,9.1 -5.85,4.65 -3.72,2.97 -1.01,0.86 c -0.7,0.58 -1.37,1.25 -1.95,1.83 -2.58,2.66 -4.85,5.83 -6.61,9.26 -1.71,3.4 -2.89,7.11 -3.59,10.74 -1.33,7.31 -0.66,14.18 0.47,20.32 2.5,12.38 7.15,22.73 12.07,32.58 2.46,4.8 5.04,9.41 7.69,13.86 0.04,0.04 0.04,0.12 0.08,0.24 l 0.08,0.07 c -0.04,0 0,0.04 0,0.04 0,0 -43.24,-20.5 -59.8,-22.77 0,-0.04 -0.04,0 -0.04,0 -1.29,-0.31 -2.58,-0.62 -3.87,-0.86 -7.89,-1.56 -16.21,-1.87 -24.26,-0.9 -1.99,0.24 -3.98,0.59 -5.97,0.98 l -2.93,0.62 -2.78,0.75 c -3.24,0.86 -6.25,1.64 -9.33,2.42 -6.21,1.48 -12.39,2.69 -18.17,3.24 -2.93,0.27 -5.66,0.51 -8.28,0.2 -2.58,-0.2 -4.96,-0.47 -7.5,-1.25 -2.54,-0.79 -5.39,-2 -8.71,-3.32 -1.68,-0.63 -3.44,-1.33 -5.23,-1.88 l -0.94,-0.31 -0.78,-0.31 c -0.55,-0.24 -1.06,-0.47 -1.57,-0.79 -4.25,-2.1 -8.12,-5.78 -11.05,-10.23 -0.7,-1.17 -1.41,-2.34 -1.95,-3.52 l -0.43,-0.78 c -0.16,-0.31 -0.08,-0.07 -0.24,-0.47 -0.19,-0.5 -0.39,-1.21 -0.54,-1.83 -0.71,-2.54 -1.14,-5.31 -1.29,-8.01 -0.28,-5.39 0.82,-10.35 3.4,-14.37 2.53,-4.11 6.83,-7.23 12.14,-9.5 5.39,-2.3 11.06,-3.59 16.06,-3 5.08,0.54 9.33,3.04 12.34,7.26 5.9,8.32 6.13,22.07 -0.35,31.02 h -0.04 c -1.44,1.44 -1.25,3.98 0.51,5.82 1.72,1.68 4.26,1.91 5.74,0.54 l 0.04,-0.03 c 0.12,-0.08 0.2,-0.24 0.31,-0.32 5.2,-5.82 8.09,-13.12 8.87,-20.66 0.7,-7.7 -0.59,-15.78 -4.84,-22.93 -2.15,-3.56 -5.04,-6.84 -8.68,-9.22 -3.55,-2.46 -7.61,-4.1 -11.79,-4.84 -8.36,-1.45 -16.37,0.11 -23.44,2.61 -7.23,2.46 -14.77,7 -19.92,14.03"
               style="fill:#ffffff;fill-opacity:1;fill-rule:nonzero;stroke:none"
               id="path48" />
            <path
               d="m 2273.59,1113.57 149.34,-258.59 h -298.67 z m 0,62.66 -203.63,-352.582 h 407.23 l -203.6,352.582"
               style="fill:#000000;fill-opacity:1;fill-rule:nonzero;stroke:none"
               id="path58" />
            <path
               d="M 580.469,1113.57 729.801,854.98 H 431.129 Z m 0,62.66 -203.59,-352.582 h 407.18 l -203.59,352.582"
               style="fill:#000000;fill-opacity:1;fill-rule:nonzero;stroke:none"
               id="path60" />
            <path
               d="m 1427.81,2584.2 149.34,-258.6 h -298.67 z m 0,62.65 -203.59,-352.57 h 407.23 l -203.64,352.57"
               style="fill:#000000;fill-opacity:1;fill-rule:nonzero;stroke:none"
               id="path62" />
          </g>
        </g>
        <g
           id="g64">
          <g
             id="g66"
             clip-path="url(#clipPath68-8)">
            <path
               d="m 2716.25,354.59 c -5.94,0 -11.52,-1.102 -16.72,-3.281 -5.12,-2.11 -9.8,-5.321 -14.06,-9.688 -4.3,-4.301 -7.5,-9.019 -9.69,-14.223 -2.19,-5.226 -3.28,-10.777 -3.28,-16.718 0,-5.86 1.09,-11.371 3.28,-16.559 2.19,-5.242 5.39,-9.961 9.69,-14.223 4.26,-4.296 8.94,-7.5 14.06,-9.687 5.2,-2.109 10.78,-3.121 16.72,-3.121 6.02,0 11.6,1.012 16.72,3.121 5.19,2.187 9.92,5.391 14.22,9.687 4.26,4.262 7.42,8.954 9.53,14.063 2.19,5.199 3.28,10.777 3.28,16.719 0,6.019 -1.09,11.64 -3.28,16.879 -2.19,5.191 -5.39,9.882 -9.53,14.062 -4.3,4.367 -9.03,7.578 -14.22,9.688 -5.12,2.179 -10.7,3.281 -16.72,3.281 z m 0,7.031 c 6.95,0 13.44,-1.25 19.37,-3.75 6.02,-2.5 11.49,-6.25 16.41,-11.25 5,-5 8.67,-10.473 11.09,-16.41 2.5,-5.941 3.76,-12.461 3.76,-19.531 0,-6.871 -1.26,-13.282 -3.76,-19.219 -2.42,-5.941 -6.09,-11.402 -11.09,-16.402 -4.92,-5 -10.39,-8.75 -16.41,-11.25 -5.93,-2.5 -12.42,-3.75 -19.37,-3.75 -6.87,0 -13.36,1.25 -19.37,3.75 -6.06,2.5 -11.53,6.25 -16.41,11.25 -5,5 -8.75,10.461 -11.25,16.402 -2.42,5.937 -3.6,12.348 -3.6,19.219 0,7.07 1.18,13.59 3.6,19.531 2.5,5.937 6.25,11.41 11.25,16.41 4.88,5 10.35,8.75 16.41,11.25 6.01,2.5 12.5,3.75 19.37,3.75 z m -1.87,-28.281 h -8.44 v -18.91 h 8.44 c 5,0 8.47,0.672 10.46,2.031 1.96,1.449 2.97,3.91 2.97,7.348 0,3.429 -1.01,5.863 -2.97,7.339 -1.99,1.454 -5.46,2.192 -10.46,2.192 z m 0.46,7.031 c 8.01,0 13.99,-1.371 17.97,-4.062 3.95,-2.739 5.94,-6.84 5.94,-12.348 0,-3.981 -1.21,-7.262 -3.59,-9.84 -2.43,-2.5 -5.78,-4.141 -10.16,-4.851 1.13,-0.418 2.42,-1.52 3.91,-3.282 1.56,-1.789 3.36,-4.328 5.47,-7.648 l 9.37,-15.16 h -11.72 l -8.75,14.218 c -2.73,4.372 -4.92,7.114 -6.56,8.282 -1.68,1.25 -3.75,1.879 -6.25,1.879 h -4.53 V 283.18 h -10.47 v 57.191 z"
               style="fill:#000000;fill-opacity:1;fill-rule:nonzero;stroke:none"
               id="path72" />
          </g>
        </g>
      </g>
    </g>
  </g>
</svg>
