\relax 
\providecommand*\new@tpo@label[2]{}
\@writefile{lof}{\contentsline {figure}{\numberline {1}{\ignorespaces Schematic of PP-FP0156.\relax }}{1}}
\providecommand*\caption@xref[2]{\@setref\relax\@undefined{#1}}
\newlabel{fig:hd-rd006110x405mm-smoothroddiagram}{{1}{1}}
\@writefile{toc}{\contentsline {section}{\numberline {1}Dimension 01 \& 02}{2}}
\@writefile{lof}{\contentsline {figure}{\numberline {2}{\ignorespaces Dimension 01\relax }}{2}}
\newlabel{fig:dim01}{{2}{2}}
\@writefile{toc}{\contentsline {section}{\numberline {2}Dimension 03, 04, 05, 06, 07, \& 08}{2}}
\@writefile{lof}{\contentsline {figure}{\numberline {3}{\ignorespaces Dimension 04\relax }}{2}}
\newlabel{fig:dim04}{{3}{2}}
\newlabel{tab:dim02}{{2}{3}}
\@writefile{toc}{\contentsline {section}{\numberline {3}Dimension 09}{3}}
\@writefile{lof}{\contentsline {figure}{\numberline {4}{\ignorespaces Dimension 09\relax }}{3}}
\newlabel{fig:dim09}{{4}{3}}
