,Config,dim04,UCL,LCL
Chart Title,PP-FP0153 Interconnect Housing Dim04,188.2,188.75,187.25
X-axis,,188.18,,
Y-axis 1,dim04,188.17,,
Y-axis 2,,188.13,,
Y-axis 3,,188.12,,
Y-axis 4,,188.18,,
UCL,UCL,188.12,,
LCL,LCL,188.07,,
X label,Index,188.15,,
Y label,Dimension(mm),188.24,,
hist1,dim04,188.14,,
hist2,,188.2,,
change index,,188.1,,
change,,188.1,,
,,188.14,,
,,188.27,,
,,188.17,,
,,188.16,,
