\relax 
\providecommand*\new@tpo@label[2]{}
\@writefile{lof}{\contentsline {figure}{\numberline {1}{\ignorespaces Schematic of PP-MP0216.\relax }}{1}}
\providecommand*\caption@xref[2]{\@setref\relax\@undefined{#1}}
\newlabel{fig:dim01}{{1}{1}}
\@writefile{toc}{\contentsline {section}{\numberline {1}Dimension 01}{2}}
