,Config,dim24,ucl,lcl
Chart Title,"PP-MP0229: Back plate, quiver Dim24",12.55,13.25,11.75
X-axis,,12.61,,
Y-axis 1,dim24,12.56,,
Y-axis 2,,12.61,,
Y-axis 3,,12.59,,
Y-axis 4,,12.58,,
UCL,ucl,12.58,,
LCL,lcl,12.57,,
X label,Index,12.61,,
Y label,Dimension (mm),12.59,,
hist1,dim24,12.59,,
hist2,,12.61,,
hist3,,12.54,,
hist4,,12.6,,
change index,,12.63,,
change,,12.62,,
,,12.58,,
,,12.59,,
,,12.72,,
,,12.59,,
