,Config,dim23,ucl,lcl
Chart Title,"PP-MP0229: Back plate, quiver Dim23",7.85,8.35,6.85
X-axis,,7.79,,
Y-axis 1,dim23,7.79,,
Y-axis 2,,7.8,,
Y-axis 3,,7.88,,
Y-axis 4,,7.75,,
UCL,ucl,7.78,,
LCL,lcl,7.74,,
X label,Index,7.78,,
Y label,Dimension (mm),7.74,,
hist1,dim23,7.77,,
hist2,,7.76,,
hist3,,7.74,,
hist4,,7.71,,
change index,,7.73,,
change,,7.76,,
,,7.75,,
,,7.81,,
,,7.74,,
,,7.74,,
