EESchema Schematic File Version 2
LIBS:power
LIBS:device
LIBS:transistors
LIBS:conn
LIBS:linear
LIBS:regul
LIBS:74xx
LIBS:cmos4000
LIBS:adc-dac
LIBS:memory
LIBS:xilinx
LIBS:microcontrollers
LIBS:dsp
LIBS:microchip
LIBS:analog_switches
LIBS:motorola
LIBS:texas
LIBS:intel
LIBS:audio
LIBS:interface
LIBS:digital-audio
LIBS:philips
LIBS:display
LIBS:cypress
LIBS:siliconi
LIBS:opto
LIBS:atmel
LIBS:contrib
LIBS:valves
LIBS:TAZ6_Wiring-cache
LIBS:TAZ7_Wiring_2-cache
EELAYER 25 0
EELAYER END
$Descr A4 11693 8268
encoding utf-8
Sheet 1 1
Title ""
Date ""
Rev ""
Comp ""
Comment1 ""
Comment2 ""
Comment3 ""
Comment4 ""
$EndDescr
$Comp
L EXTRUDER_HTR EH?
U 1 1 5BBD75F6
P 10200 3150
F 0 "EH?" H 10200 2700 60  0001 C CNN
F 1 "EXTRUDER_HTR" H 10200 3550 60  0000 C CNN
F 2 "" H 10400 3050 60  0001 C CNN
F 3 "" H 10400 3050 60  0001 C CNN
	1    10200 3150
	1    0    0    -1  
$EndComp
$Comp
L EXTRUDER_HTR EH?
U 1 1 5BBD76C5
P 1400 3150
F 0 "EH?" H 1400 2700 60  0001 C CNN
F 1 "EXTRUDER_HTR" H 1400 3550 60  0000 C CNN
F 2 "" H 1600 3050 60  0001 C CNN
F 3 "" H 1600 3050 60  0001 C CNN
	1    1400 3150
	-1   0    0    -1  
$EndComp
$Comp
L THERMISTOR RT?
U 1 1 5BBD7779
P 1550 5750
F 0 "RT?" H 1550 5450 60  0000 C CNN
F 1 "THERMISTOR" H 1550 6050 60  0000 C CNN
F 2 "" H 1300 5750 60  0001 C CNN
F 3 "" H 1300 5750 60  0001 C CNN
	1    1550 5750
	1    0    0    -1  
$EndComp
$Comp
L THERMISTOR RT?
U 1 1 5BBD782C
P 10050 4950
F 0 "RT?" H 10050 4650 60  0000 C CNN
F 1 "THERMISTOR" H 10050 5250 60  0000 C CNN
F 2 "" H 9800 4950 60  0001 C CNN
F 3 "" H 9800 4950 60  0001 C CNN
	1    10050 4950
	-1   0    0    -1  
$EndComp
$Comp
L SERVO FN?
U 1 1 5BBD795F
P 1400 1050
F 0 "FN?" H 1400 650 60  0000 C CNN
F 1 "SERVO" H 1400 1450 60  0000 C CNN
F 2 "" H 1400 1050 60  0001 C CNN
F 3 "" H 1400 1050 60  0001 C CNN
	1    1400 1050
	-1   0    0    1   
$EndComp
$Comp
L SERVO FN?
U 1 1 5BBD7A18
P 10200 1050
F 0 "FN?" H 10200 650 60  0000 C CNN
F 1 "SERVO" H 10200 1450 60  0000 C CNN
F 2 "" H 10200 1050 60  0001 C CNN
F 3 "" H 10200 1050 60  0001 C CNN
	1    10200 1050
	1    0    0    1   
$EndComp
$Comp
L STEPPER_MOTOR_TAZ7 M?
U 1 1 5BBE5A8C
P 1500 2100
F 0 "M?" H 1500 1600 60  0001 C CNN
F 1 "STEPPER_MOTOR_TAZ7" H 1500 2600 60  0000 C CNN
F 2 "" H 1500 2100 60  0001 C CNN
F 3 "" H 1500 2100 60  0001 C CNN
	1    1500 2100
	-1   0    0    -1  
$EndComp
$Comp
L STEPPER_MOTOR_TAZ7 M?
U 1 1 5BBE5B57
P 10100 2100
F 0 "M?" H 10100 1600 60  0000 C CNN
F 1 "STEPPER_MOTOR_TAZ7" H 10100 2600 60  0000 C CNN
F 2 "" H 10100 2100 60  0001 C CNN
F 3 "" H 10100 2100 60  0001 C CNN
	1    10100 2100
	1    0    0    -1  
$EndComp
$Comp
L Dual_Interface J?
U 1 1 5BBE28DD
P 5800 4050
F 0 "J?" V 7750 1600 60  0001 C CNN
F 1 "Dual_Interface" V 3900 1550 60  0001 C CNN
F 2 "" V 4400 1550 60  0001 C CNN
F 3 "" V 4400 1550 60  0001 C CNN
	1    5800 4050
	1    0    0    -1  
$EndComp
Wire Wire Line
	1900 1050 3100 1050
Wire Wire Line
	3100 1050 3100 1250
Wire Wire Line
	3100 1250 3600 1250
Wire Wire Line
	2900 1550 3600 1550
Wire Wire Line
	1900 850  3300 850 
Wire Wire Line
	3300 850  3300 1400
Wire Wire Line
	3300 1400 3600 1400
Wire Wire Line
	1900 2950 2550 2950
Wire Wire Line
	2550 2950 2550 2400
Wire Wire Line
	2550 2400 3600 2400
Wire Wire Line
	1900 3350 2650 3350
Wire Wire Line
	2650 3350 2650 2550
Wire Wire Line
	2650 2550 3600 2550
Wire Wire Line
	1900 1250 2900 1250
Wire Wire Line
	2900 1250 2900 1550
Wire Wire Line
	3600 1800 2100 1800
Wire Wire Line
	3600 1950 2200 1950
Wire Wire Line
	2200 1950 2200 2000
Wire Wire Line
	2200 2000 2100 2000
Wire Wire Line
	3600 2100 2300 2100
Wire Wire Line
	2300 2100 2300 2200
Wire Wire Line
	2300 2200 2100 2200
Wire Wire Line
	3600 2250 2400 2250
Wire Wire Line
	2400 2250 2400 2400
Wire Wire Line
	2400 2400 2100 2400
$Comp
L FAN FN?
U 1 1 5BBE9D56
P 1400 4050
F 0 "FN?" H 1400 3650 60  0000 C CNN
F 1 "FAN" V 1750 4050 60  0000 C CNN
F 2 "" H 1400 4050 60  0001 C CNN
F 3 "" H 1400 4050 60  0001 C CNN
	1    1400 4050
	0    -1   -1   0   
$EndComp
$Comp
L FAN FN?
U 1 1 5BBE9F45
P 1400 4950
F 0 "FN?" H 1400 4550 60  0000 C CNN
F 1 "FAN" V 1750 4950 60  0000 C CNN
F 2 "" H 1400 4950 60  0001 C CNN
F 3 "" H 1400 4950 60  0001 C CNN
	1    1400 4950
	0    -1   -1   0   
$EndComp
Wire Wire Line
	3600 2700 2800 2700
Wire Wire Line
	2800 2700 2800 3800
Wire Wire Line
	2800 3800 1900 3800
Wire Wire Line
	3600 2850 2900 2850
Wire Wire Line
	2900 2850 2900 4300
Wire Wire Line
	2900 4300 1900 4300
Wire Wire Line
	3600 3000 3050 3000
Wire Wire Line
	3050 3000 3050 4700
Wire Wire Line
	3050 4700 1900 4700
Wire Wire Line
	3600 3150 3150 3150
Wire Wire Line
	3150 3150 3150 5200
Wire Wire Line
	3150 5200 1900 5200
Wire Wire Line
	3600 4200 3300 4200
Wire Wire Line
	3300 4200 3300 5650
Wire Wire Line
	3300 5650 2150 5650
Wire Wire Line
	3600 4350 3400 4350
Wire Wire Line
	3400 4350 3400 5850
Wire Wire Line
	3400 5850 2150 5850
Wire Wire Line
	8300 850  8300 1400
Wire Wire Line
	8300 1400 8000 1400
Wire Wire Line
	9700 850  8300 850 
Wire Wire Line
	8000 1250 8500 1250
Wire Wire Line
	8500 1250 8500 1050
Wire Wire Line
	8500 1050 9700 1050
Wire Wire Line
	8000 1550 8700 1550
Wire Wire Line
	8700 1550 8700 1250
Wire Wire Line
	8700 1250 9700 1250
Wire Wire Line
	9500 1800 8050 1800
Wire Wire Line
	9500 2000 9450 2000
Wire Wire Line
	9450 2000 9450 1950
Wire Wire Line
	9450 1950 8050 1950
Wire Wire Line
	9500 2200 9350 2200
Wire Wire Line
	9350 2200 9350 2100
Wire Wire Line
	9350 2100 8050 2100
Wire Wire Line
	9500 2400 9250 2400
Wire Wire Line
	9250 2400 9250 2250
Wire Wire Line
	9250 2250 8050 2250
Wire Wire Line
	8050 2400 9100 2400
Wire Wire Line
	9100 2400 9100 2950
Wire Wire Line
	9100 2950 9700 2950
Wire Wire Line
	8050 2550 9000 2550
Wire Wire Line
	9000 2550 9000 3350
Wire Wire Line
	9000 3350 9700 3350
$Comp
L FAN FN?
U 1 1 5BBEBC75
P 10200 4100
F 0 "FN?" H 10200 3700 60  0001 C CNN
F 1 "FAN" V 10550 4100 60  0000 C CNN
F 2 "" H 10200 4100 60  0001 C CNN
F 3 "" H 10200 4100 60  0001 C CNN
	1    10200 4100
	0    1    -1   0   
$EndComp
Wire Wire Line
	7900 3000 8850 3000
Wire Wire Line
	8850 3000 8850 3850
Wire Wire Line
	8850 3850 9700 3850
Wire Wire Line
	7900 3150 8750 3150
Wire Wire Line
	8750 3150 8750 4350
Wire Wire Line
	8750 4350 9700 4350
Wire Wire Line
	8050 4200 8600 4200
Wire Wire Line
	8600 4200 8600 4850
Wire Wire Line
	8600 4850 9450 4850
Wire Wire Line
	8050 4350 8500 4350
Wire Wire Line
	8500 4350 8500 5050
Wire Wire Line
	8500 5050 9450 5050
Text Notes 4800 3400 0    118  ~ 0
TAZ 7 DUAL INTERFACE
Text Notes 5350 6500 0    60   ~ 0
TO EXTRUDER HARNESS
Text Notes 7600 6950 0    118  ~ 0
TAZ 7 DUAL EXTRUDER ASSEMBLY
$EndSCHEMATC
