\relax 
\providecommand*\new@tpo@label[2]{}
\@writefile{lof}{\contentsline {figure}{\numberline {1}{\ignorespaces Schematic of PP-FP0153.\relax }}{1}}
\providecommand*\caption@xref[2]{\@setref\relax\@undefined{#1}}
\newlabel{fig:schematic}{{1}{1}}
\@writefile{toc}{\contentsline {section}{\numberline {1}Dimension 1 \& 2}{2}}
\@writefile{lof}{\contentsline {figure}{\numberline {2}{\ignorespaces Dimension 01\relax }}{2}}
\newlabel{fig:dim01}{{2}{2}}
\@writefile{lof}{\contentsline {figure}{\numberline {3}{\ignorespaces Dimension 02\relax }}{2}}
\newlabel{fig:dim02}{{3}{2}}
\@writefile{toc}{\contentsline {section}{\numberline {2}Dimension 3, 4, \& 5}{3}}
\@writefile{lof}{\contentsline {figure}{\numberline {4}{\ignorespaces Dimension 03\relax }}{3}}
\newlabel{fig:dim03}{{4}{3}}
\@writefile{toc}{\contentsline {section}{\numberline {3}Dimension 6}{3}}
\@writefile{lof}{\contentsline {figure}{\numberline {5}{\ignorespaces Dimension 06\relax }}{3}}
\newlabel{fig:dim06}{{5}{3}}
\@writefile{toc}{\contentsline {section}{\numberline {4}Dimension 7}{4}}
\@writefile{lof}{\contentsline {figure}{\numberline {6}{\ignorespaces Dimension 07\relax }}{4}}
\newlabel{fig:dim07}{{6}{4}}
