\relax 
\providecommand*\new@tpo@label[2]{}
\@writefile{lof}{\contentsline {figure}{\numberline {1}{\ignorespaces Schematic of PP-MP0225.\relax }}{1}}
\providecommand*\caption@xref[2]{\@setref\relax\@undefined{#1}}
\newlabel{fig:schematic}{{1}{1}}
\@writefile{toc}{\contentsline {section}{\numberline {1}Dimension 1, 2, 3, \& 4}{2}}
\newlabel{fig:dim01}{{2a}{2}}
\newlabel{sub@fig:dim01}{{a}{2}}
\newlabel{fig:dim02}{{2b}{2}}
\newlabel{sub@fig:dim02}{{b}{2}}
\newlabel{fig:dim03}{{2c}{2}}
\newlabel{sub@fig:dim03}{{c}{2}}
\newlabel{fig:dim}{{\caption@xref {fig:dim}{ on input line 42}}{2}}
\@writefile{toc}{\contentsline {section}{\numberline {2}Dimension 5 \& 6}{3}}
\@writefile{lof}{\contentsline {figure}{\numberline {3}{\ignorespaces Dimension 05\relax }}{3}}
\newlabel{fig:dim05}{{3}{3}}
\@writefile{lof}{\contentsline {figure}{\numberline {4}{\ignorespaces Dimension 06\relax }}{3}}
\newlabel{fig:dim06}{{4}{3}}
\@writefile{toc}{\contentsline {section}{\numberline {3}Dimension 08}{4}}
\@writefile{lof}{\contentsline {figure}{\numberline {5}{\ignorespaces Dimension 08\relax }}{4}}
\newlabel{fig:dim08}{{5}{4}}
